EESchema Schematic File Version 4
EELAYER 30 0
EELAYER END
$Descr A4 11693 8268
encoding utf-8
Sheet 8 10
Title ""
Date ""
Rev ""
Comp ""
Comment1 ""
Comment2 ""
Comment3 ""
Comment4 ""
$EndDescr
$Comp
L FFC2B28-24-G:FFC2B28-24-G J5
U 1 1 61138A5E
P 5900 3450
F 0 "J5" H 6130 3446 50  0000 L CNN
F 1 "FFC2B28-24-G" H 6130 3355 50  0000 L CNN
F 2 "others:FFC2B28-24-G" H 5900 3450 50  0001 L BNN
F 3 "" H 5900 3450 50  0001 L BNN
F 4 "Manufacturer Recommendations" H 5900 3450 50  0001 L BNN "STANDARD"
F 5 "1.75mm" H 5900 3450 50  0001 L BNN "MAXIMUM_PACKAGE_HEIGHT"
F 6 "A" H 5900 3450 50  0001 L BNN "PARTREV"
F 7 "GCT" H 5900 3450 50  0001 L BNN "MANUFACTURER"
	1    5900 3450
	1    0    0    -1  
$EndComp
Text HLabel 5450 2450 0    50   Input ~ 0
CSI_D2
Text HLabel 5450 2550 0    50   Input ~ 0
CSI_D1
Text HLabel 5450 2650 0    50   Input ~ 0
CSI_D3
Text HLabel 5450 2750 0    50   Input ~ 0
CSI_D0
Text HLabel 5450 2850 0    50   Input ~ 0
CSI_D4
Text HLabel 4300 2950 0    50   Input ~ 0
CSI_PCLK
Text HLabel 5450 3050 0    50   Input ~ 0
CSI_D5
Text HLabel 5450 3250 0    50   Input ~ 0
CSI_D6
Text HLabel 5450 3350 0    50   Input ~ 0
CSI_MCLK
Text HLabel 5450 3450 0    50   Input ~ 0
CSI_D7
Text HLabel 5450 3750 0    50   Input ~ 0
CSI_HSYNC
Text HLabel 5450 3950 0    50   Input ~ 0
CSI_VSYNC
Text HLabel 5450 4150 0    50   Input ~ 0
TWI_SCK
Text HLabel 5450 4350 0    50   Input ~ 0
TWI_SDA
$Comp
L power:+1V2 #PWR063
U 1 1 611D016A
P 4750 3650
F 0 "#PWR063" H 4750 3500 50  0001 C CNN
F 1 "+1V2" H 4765 3823 50  0000 C CNN
F 2 "" H 4750 3650 50  0001 C CNN
F 3 "" H 4750 3650 50  0001 C CNN
	1    4750 3650
	1    0    0    -1  
$EndComp
$Comp
L power:+2V8 #PWR067
U 1 1 611D1EA6
P 4900 4250
F 0 "#PWR067" H 4900 4100 50  0001 C CNN
F 1 "+2V8" H 4915 4423 50  0000 C CNN
F 2 "" H 4900 4250 50  0001 C CNN
F 3 "" H 4900 4250 50  0001 C CNN
	1    4900 4250
	1    0    0    -1  
$EndComp
$Comp
L power:GND #PWR058
U 1 1 611D3834
P 4750 3150
F 0 "#PWR058" H 4750 2900 50  0001 C CNN
F 1 "GND" H 4755 2977 50  0000 C CNN
F 2 "" H 4750 3150 50  0001 C CNN
F 3 "" H 4750 3150 50  0001 C CNN
	1    4750 3150
	1    0    0    -1  
$EndComp
$Comp
L 805_cap:Cap C?
U 1 1 611D5574
P 4400 3100
AR Path="/61198D3E/611D5574" Ref="C?"  Part="1" 
AR Path="/6111A211/611D5574" Ref="C23"  Part="1" 
F 0 "C23" V 4404 3203 50  0000 L CNN
F 1 "15pF" V 4495 3203 50  0000 L CNN
F 2 "Capacitor_SMD:C_0805_2012Metric" H 4400 3100 50  0001 L BNN
F 3 "" H 4400 3100 50  0001 L BNN
	1    4400 3100
	0    1    1    0   
$EndComp
$Comp
L Device:R_US R?
U 1 1 611D6013
P 4700 3850
AR Path="/61198D3E/611D6013" Ref="R?"  Part="1" 
AR Path="/6111A211/611D6013" Ref="R19"  Part="1" 
F 0 "R19" V 4750 3950 50  0000 L CNN
F 1 "1K" V 4750 3700 50  0000 L CNN
F 2 "Resistor_SMD:R_0805_2012Metric" V 4740 3840 50  0001 C CNN
F 3 "~" H 4700 3850 50  0001 C CNN
	1    4700 3850
	0    -1   -1   0   
$EndComp
Wire Wire Line
	5450 2450 5500 2450
Wire Wire Line
	5450 2550 5500 2550
Wire Wire Line
	5450 2650 5500 2650
Wire Wire Line
	5450 2750 5500 2750
Wire Wire Line
	5450 2850 5500 2850
Wire Wire Line
	5450 3050 5500 3050
Wire Wire Line
	5450 3250 5500 3250
Wire Wire Line
	5450 3350 5500 3350
Wire Wire Line
	5450 3450 5500 3450
Wire Wire Line
	5450 3750 5500 3750
Wire Wire Line
	4850 3850 5500 3850
Wire Wire Line
	5450 3950 5500 3950
Wire Wire Line
	5450 4150 5500 4150
Wire Wire Line
	5450 4350 5500 4350
Wire Wire Line
	5500 3550 4900 3550
Wire Wire Line
	5500 3650 4750 3650
Wire Wire Line
	4750 3150 5500 3150
Wire Wire Line
	5500 2950 4400 2950
Wire Wire Line
	4400 3000 4400 2950
Connection ~ 4400 2950
Wire Wire Line
	4400 2950 4300 2950
$Comp
L power:GND #PWR061
U 1 1 611E3C55
P 4400 3350
F 0 "#PWR061" H 4400 3100 50  0001 C CNN
F 1 "GND" H 4405 3177 50  0000 C CNN
F 2 "" H 4400 3350 50  0001 C CNN
F 3 "" H 4400 3350 50  0001 C CNN
	1    4400 3350
	1    0    0    -1  
$EndComp
Wire Wire Line
	4400 3350 4400 3300
$Comp
L power:GND #PWR066
U 1 1 611E4C2E
P 4550 3900
F 0 "#PWR066" H 4550 3650 50  0001 C CNN
F 1 "GND" H 4555 3727 50  0000 C CNN
F 2 "" H 4550 3900 50  0001 C CNN
F 3 "" H 4550 3900 50  0001 C CNN
	1    4550 3900
	1    0    0    -1  
$EndComp
Wire Wire Line
	4550 3900 4550 3850
Wire Wire Line
	4900 4250 5500 4250
$Comp
L power:GND #PWR068
U 1 1 611E671D
P 5350 4800
F 0 "#PWR068" H 5350 4550 50  0001 C CNN
F 1 "GND" H 5355 4627 50  0000 C CNN
F 2 "" H 5350 4800 50  0001 C CNN
F 3 "" H 5350 4800 50  0001 C CNN
	1    5350 4800
	1    0    0    -1  
$EndComp
Wire Wire Line
	5500 4450 5350 4450
Wire Wire Line
	5500 4750 5350 4750
Wire Wire Line
	5350 4450 5350 4750
Wire Wire Line
	5350 4800 5350 4750
Connection ~ 5350 4750
$Comp
L 805_cap:Cap C?
U 1 1 611E9FB2
P 3750 3500
AR Path="/61198D3E/611E9FB2" Ref="C?"  Part="1" 
AR Path="/6111A211/611E9FB2" Ref="C24"  Part="1" 
F 0 "C24" V 3754 3603 50  0000 L CNN
F 1 "100nF" V 3845 3603 50  0000 L CNN
F 2 "Capacitor_SMD:C_0805_2012Metric" H 3750 3500 50  0001 L BNN
F 3 "" H 3750 3500 50  0001 L BNN
	1    3750 3500
	0    1    1    0   
$EndComp
$Comp
L power:GND #PWR064
U 1 1 611ECCC1
P 3750 3750
F 0 "#PWR064" H 3750 3500 50  0001 C CNN
F 1 "GND" H 3755 3577 50  0000 C CNN
F 2 "" H 3750 3750 50  0001 C CNN
F 3 "" H 3750 3750 50  0001 C CNN
	1    3750 3750
	1    0    0    -1  
$EndComp
Wire Wire Line
	3750 3350 3750 3400
Wire Wire Line
	3750 3700 3750 3750
NoConn ~ 5500 2250
NoConn ~ 5500 2350
NoConn ~ 5500 4550
Wire Wire Line
	7700 3350 7700 3300
Text Label 5100 4050 0    50   ~ 0
CAM_RST
Wire Wire Line
	5100 4050 5500 4050
Text Label 7250 3350 0    50   ~ 0
CAM_RST
$Comp
L power:+3V0 #PWR0102
U 1 1 611F19B7
P 7700 3300
F 0 "#PWR0102" H 7700 3150 50  0001 C CNN
F 1 "+3V0" H 7715 3473 50  0000 C CNN
F 2 "" H 7700 3300 50  0001 C CNN
F 3 "" H 7700 3300 50  0001 C CNN
	1    7700 3300
	1    0    0    -1  
$EndComp
$Comp
L power:+3V0 #PWR0103
U 1 1 611F3B91
P 4900 3550
F 0 "#PWR0103" H 4900 3400 50  0001 C CNN
F 1 "+3V0" H 4915 3723 50  0000 C CNN
F 2 "" H 4900 3550 50  0001 C CNN
F 3 "" H 4900 3550 50  0001 C CNN
	1    4900 3550
	1    0    0    -1  
$EndComp
$Comp
L power:+3V0 #PWR0104
U 1 1 611F4509
P 3750 3350
F 0 "#PWR0104" H 3750 3200 50  0001 C CNN
F 1 "+3V0" H 3765 3523 50  0000 C CNN
F 2 "" H 3750 3350 50  0001 C CNN
F 3 "" H 3750 3350 50  0001 C CNN
	1    3750 3350
	1    0    0    -1  
$EndComp
Wire Wire Line
	7250 3350 7700 3350
$EndSCHEMATC
