EESchema Schematic File Version 4
EELAYER 30 0
EELAYER END
$Descr A4 11693 8268
encoding utf-8
Sheet 10 10
Title ""
Date ""
Rev ""
Comp ""
Comment1 ""
Comment2 ""
Comment3 ""
Comment4 ""
$EndDescr
Text HLabel 5350 3800 0    50   Input ~ 0
SDA
Text HLabel 5350 3700 0    50   Input ~ 0
SCL
$Comp
L power:+3.3V #PWR?
U 1 1 61266D57
P 5350 2700
AR Path="/6115C67C/61266D57" Ref="#PWR?"  Part="1" 
AR Path="/611727C1/61266D57" Ref="#PWR?"  Part="1" 
AR Path="/61178059/61266D57" Ref="#PWR?"  Part="1" 
AR Path="/6111A12F/61266D57" Ref="#PWR015"  Part="1" 
F 0 "#PWR015" H 5350 2550 50  0001 C CNN
F 1 "+3.3V" H 5365 2873 50  0000 C CNN
F 2 "" H 5350 2700 50  0001 C CNN
F 3 "" H 5350 2700 50  0001 C CNN
	1    5350 2700
	1    0    0    -1  
$EndComp
Connection ~ 5350 2750
Wire Wire Line
	5350 2750 5350 2700
Wire Wire Line
	5350 2850 5350 2750
Wire Wire Line
	5450 4550 5450 4750
Wire Wire Line
	5450 4750 5450 4800
Connection ~ 5450 4750
Wire Wire Line
	5450 3800 5350 3800
Wire Wire Line
	5350 3700 5450 3700
Wire Wire Line
	5450 2850 5350 2850
Wire Wire Line
	5450 2750 5350 2750
$Comp
L PCA9539BS_118:PCA9539BS,118 U8
U 1 1 612626DE
P 6150 3650
F 0 "U8" H 6150 4920 50  0000 C CNN
F 1 "PCA9539BS,118" H 6150 4829 50  0000 C CNN
F 2 "Package_DFN_QFN:QFN-24-1EP_4x4mm_P0.5mm_EP2.6x2.6mm" H 6150 3650 50  0001 L BNN
F 3 "" H 6150 3650 50  0001 L BNN
F 4 "HVQFN-24" H 6150 3650 50  0001 L BNN "PACKAGE"
F 5 "NXP" H 6150 3650 50  0001 L BNN "SUPPLIER"
F 6 "-" H 6150 3650 50  0001 L BNN "OC_FARNELL"
F 7 "70R6553" H 6150 3650 50  0001 L BNN "OC_NEWARK"
F 8 "PCA9539BS,118" H 6150 3650 50  0001 L BNN "MPN"
	1    6150 3650
	1    0    0    -1  
$EndComp
$Comp
L power:GND #PWR?
U 1 1 61264B89
P 5450 4800
AR Path="/6111A211/61264B89" Ref="#PWR?"  Part="1" 
AR Path="/6111A19E/61264B89" Ref="#PWR?"  Part="1" 
AR Path="/6111A12F/61264B89" Ref="#PWR060"  Part="1" 
F 0 "#PWR060" H 5450 4550 50  0001 C CNN
F 1 "GND" H 5455 4627 50  0000 C CNN
F 2 "" H 5450 4800 50  0001 C CNN
F 3 "" H 5450 4800 50  0001 C CNN
	1    5450 4800
	1    0    0    -1  
$EndComp
$Comp
L power:GND #PWR?
U 1 1 61267E80
P 5350 3300
AR Path="/6111A211/61267E80" Ref="#PWR?"  Part="1" 
AR Path="/6111A19E/61267E80" Ref="#PWR?"  Part="1" 
AR Path="/6111A12F/61267E80" Ref="#PWR059"  Part="1" 
F 0 "#PWR059" H 5350 3050 50  0001 C CNN
F 1 "GND" H 5355 3127 50  0000 C CNN
F 2 "" H 5350 3300 50  0001 C CNN
F 3 "" H 5350 3300 50  0001 C CNN
	1    5350 3300
	1    0    0    -1  
$EndComp
Wire Wire Line
	5450 3150 5350 3150
Text HLabel 6850 3950 2    50   Input ~ 0
GPS_Power
Text HLabel 6850 3350 2    50   Input ~ 0
Led1
Text HLabel 6850 2950 2    50   Input ~ 0
CAM_Power
Wire Wire Line
	5450 3250 5350 3250
Wire Wire Line
	5350 3150 5350 3250
Wire Wire Line
	5350 3250 5350 3300
Connection ~ 5350 3250
$EndSCHEMATC
