EESchema Schematic File Version 4
EELAYER 30 0
EELAYER END
$Descr A4 11693 8268
encoding utf-8
Sheet 1 11
Title ""
Date ""
Rev ""
Comp ""
Comment1 ""
Comment2 ""
Comment3 ""
Comment4 ""
$EndDescr
$Sheet
S 4050 4500 700  300 
U 6115C67C
F0 "Power" 50
F1 "Power.sch" 50
F2 "Bat_D" I R 4750 4700 50 
F3 "CAM_Power" I R 4750 4600 50 
$EndSheet
$Sheet
S 4050 3800 700  500 
U 6116D7B3
F0 "Programmer" 50
F1 "Programmer.sch" 50
F2 "RXD0" I R 4750 4100 50 
F3 "TXD0" I R 4750 4200 50 
F4 "EN" I R 4750 3900 50 
F5 "I0O" I R 4750 4000 50 
$EndSheet
$Sheet
S 4050 3150 700  450 
U 61170FA8
F0 "Led_Buton" 50
F1 "Led_Buton.sch" 50
F2 "Led1" I R 4750 3250 50 
F3 "IO0" I R 4750 3400 50 
F4 "EN" I R 4750 3500 50 
$EndSheet
$Sheet
S 4050 2650 700  300 
U 611727C1
F0 "BMP280" 50
F1 "BMP280.sch" 50
F2 "SDA" I R 4750 2750 50 
F3 "SCL" I R 4750 2850 50 
$EndSheet
$Sheet
S 4050 2000 700  450 
U 61178059
F0 "Max_M8Q" 50
F1 "Max_M8Q.sch" 50
F2 "GPS_Power" I R 4750 2100 50 
F3 "SDA" I R 4750 2250 50 
F4 "SCL" I R 4750 2350 50 
$EndSheet
$Sheet
S 7050 2150 700  900 
U 6111A19E
F0 "Ebyte" 50
F1 "Ebyte.sch" 50
F2 "NSS" I L 7050 2250 50 
F3 "SCK" I L 7050 2350 50 
F4 "MOSI" I L 7050 2450 50 
F5 "MISO" I L 7050 2550 50 
F6 "NRST" I L 7050 2650 50 
F7 "BUSY" I L 7050 2750 50 
F8 "DIO1" I L 7050 2850 50 
F9 "TXEN" I L 7050 2950 50 
$EndSheet
$Sheet
S 7050 3250 700  1500
U 6111A211
F0 "Cam" 50
F1 "Cam.sch" 50
F2 "CSI_D2" I L 7050 4650 50 
F3 "CSI_D1" I L 7050 4550 50 
F4 "CSI_D3" I L 7050 4450 50 
F5 "CSI_D0" I L 7050 4350 50 
F6 "CSI_D4" I L 7050 4250 50 
F7 "CSI_PCLK" I L 7050 4150 50 
F8 "CSI_D5" I L 7050 4050 50 
F9 "CSI_D6" I L 7050 3950 50 
F10 "CSI_MCLK" I L 7050 3850 50 
F11 "CSI_D7" I L 7050 3750 50 
F12 "CSI_HSYNC" I L 7050 3650 50 
F13 "CSI_VSYNC" I L 7050 3550 50 
F14 "TWI_SCK" I L 7050 3450 50 
F15 "TWI_SDA" I L 7050 3350 50 
$EndSheet
Wire Wire Line
	7050 2250 6550 2250
Wire Wire Line
	7050 2350 6550 2350
Wire Wire Line
	7050 2450 6550 2450
Wire Wire Line
	7050 2550 6550 2550
Wire Wire Line
	7050 2650 6550 2650
Wire Wire Line
	7050 2750 6550 2750
Wire Wire Line
	7050 2850 6550 2850
Wire Wire Line
	6550 3350 7050 3350
Wire Wire Line
	6550 3450 7050 3450
Wire Wire Line
	6550 3550 7050 3550
Wire Wire Line
	6550 3650 7050 3650
Wire Wire Line
	6550 3750 7050 3750
Wire Wire Line
	6550 3950 7050 3950
Wire Wire Line
	6550 4050 7050 4050
Wire Wire Line
	6550 4150 7050 4150
Wire Wire Line
	6550 4250 7050 4250
Wire Wire Line
	6550 4350 7050 4350
Wire Wire Line
	6550 4450 7050 4450
Wire Wire Line
	6550 4550 7050 4550
Wire Wire Line
	6550 4650 7050 4650
Text Label 6750 3850 0    50   ~ 0
IO0
Text Label 5000 4000 0    50   ~ 0
IO0
Wire Wire Line
	7050 3850 6750 3850
Wire Wire Line
	5250 4000 4950 4000
Wire Wire Line
	4750 3900 4850 3900
Wire Wire Line
	4750 3500 4850 3500
Wire Wire Line
	4850 3500 4850 3900
Connection ~ 4850 3900
Wire Wire Line
	4850 3900 5250 3900
Wire Wire Line
	4950 4000 4950 3400
Wire Wire Line
	4950 3400 4750 3400
Connection ~ 4950 4000
Wire Wire Line
	4950 4000 4750 4000
Wire Wire Line
	5250 4100 4750 4100
Wire Wire Line
	5250 4200 4750 4200
Text Label 4850 2850 0    50   ~ 0
SCL
Text Label 4850 2750 0    50   ~ 0
SDA
Wire Wire Line
	4850 2850 4750 2850
Wire Wire Line
	4750 2750 4850 2750
Text Label 4850 2350 0    50   ~ 0
SCL
Text Label 4850 2250 0    50   ~ 0
SDA
Wire Wire Line
	4850 2350 4750 2350
Wire Wire Line
	4750 2250 4850 2250
Text Label 6750 3450 0    50   ~ 0
SCL
Text Label 6750 3350 0    50   ~ 0
SDA
$Sheet
S 5250 1950 1300 2850
U 61198D3E
F0 "Mcu" 50
F1 "Mcu.sch" 50
F2 "EN" I L 5250 3900 50 
F3 "SENSOR_VP" I R 6550 4250 50 
F4 "SENSOR_VN" I R 6550 4050 50 
F5 "IO34" I R 6550 3950 50 
F6 "IO35" I R 6550 3750 50 
F7 "TXD0" I L 5250 4200 50 
F8 "RXD0" I L 5250 4100 50 
F9 "IO0" I L 5250 4000 50 
F10 "IO2" I R 6550 2950 50 
F11 "IO4" I R 6550 2850 50 
F12 "IO5" I R 6550 4350 50 
F13 "IO12" I R 6550 2550 50 
F14 "IO13" I R 6550 2450 50 
F15 "IO14" I R 6550 2350 50 
F16 "IO15" I R 6550 2250 50 
F17 "IO18" I R 6550 4550 50 
F18 "IO19" I R 6550 4650 50 
F19 "IO21" I R 6550 4450 50 
F20 "IO22" I R 6550 4150 50 
F21 "IO23" I R 6550 3650 50 
F22 "IO25" I R 6550 3550 50 
F23 "IO26" I R 6550 3350 50 
F24 "IO27" I R 6550 3450 50 
F25 "IO32" I R 6550 2650 50 
F26 "IO33" I R 6550 2750 50 
$EndSheet
Text Label 4850 1350 0    50   ~ 0
SCL
Text Label 4850 1250 0    50   ~ 0
SDA
Wire Wire Line
	4850 1350 4750 1350
Wire Wire Line
	4750 1250 4850 1250
Wire Wire Line
	4900 2100 4900 1650
Wire Wire Line
	4900 1650 4750 1650
Wire Wire Line
	4750 1550 4850 1550
Wire Wire Line
	4750 1450 4850 1450
Text Label 4850 1550 0    50   ~ 0
Led
Text Label 4850 1450 0    50   ~ 0
Cam_Pwr
Text Label 4850 4600 0    50   ~ 0
Cam_Pwr
Text Label 4850 3250 0    50   ~ 0
Led
Wire Wire Line
	4850 4600 4750 4600
Wire Wire Line
	4850 3250 4750 3250
Text Label 5050 4100 0    50   ~ 0
+
Text Label 5050 4200 0    50   ~ 0
-
$Sheet
S 4050 5000 700  400 
U 61570E22
F0 "ADC" 50
F1 "ADC.sch" 50
F2 "SCL" I R 4750 5300 50 
F3 "SDA" I R 4750 5200 50 
F4 "ADC" I R 4750 5100 50 
$EndSheet
$Sheet
S 4050 1150 700  600 
U 6111A12F
F0 "IO_coklayici" 50
F1 "IO_coklayici.sch" 50
F2 "SDA" I R 4750 1250 50 
F3 "SCL" I R 4750 1350 50 
F4 "GPS_Power" I R 4750 1650 50 
F5 "Led1" I R 4750 1550 50 
F6 "CAM_Power" I R 4750 1450 50 
$EndSheet
Wire Wire Line
	4750 2100 4900 2100
Text Label 4850 5300 0    50   ~ 0
SCL
Text Label 4850 5200 0    50   ~ 0
SDA
Wire Wire Line
	4850 5300 4750 5300
Wire Wire Line
	4750 5200 4850 5200
Wire Wire Line
	4750 5100 4950 5100
Wire Wire Line
	4950 5100 4950 4700
Wire Wire Line
	4950 4700 4750 4700
Wire Wire Line
	7050 2950 6550 2950
$EndSCHEMATC
