EESchema Schematic File Version 4
EELAYER 30 0
EELAYER END
$Descr A4 11693 8268
encoding utf-8
Sheet 7 11
Title ""
Date ""
Rev ""
Comp ""
Comment1 ""
Comment2 ""
Comment3 ""
Comment4 ""
$EndDescr
$Comp
L power:+3.3V #PWR?
U 1 1 611F0AA3
P 5000 3100
AR Path="/61198D3E/611F0AA3" Ref="#PWR?"  Part="1" 
AR Path="/6111A211/611F0AA3" Ref="#PWR?"  Part="1" 
AR Path="/6111A19E/611F0AA3" Ref="#PWR055"  Part="1" 
F 0 "#PWR055" H 5000 2950 50  0001 C CNN
F 1 "+3.3V" H 5015 3273 50  0000 C CNN
F 2 "" H 5000 3100 50  0001 C CNN
F 3 "" H 5000 3100 50  0001 C CNN
	1    5000 3100
	1    0    0    -1  
$EndComp
NoConn ~ 5050 3550
NoConn ~ 5050 3650
Wire Wire Line
	5050 3950 5000 3950
Wire Wire Line
	5000 3950 5000 4000
Wire Wire Line
	5050 3150 5000 3150
Wire Wire Line
	5000 3150 5000 3100
Text HLabel 6900 3350 2    50   Input ~ 0
NSS
Text HLabel 6900 3450 2    50   Input ~ 0
SCK
Text HLabel 6900 3550 2    50   Input ~ 0
MOSI
Text HLabel 6900 3650 2    50   Input ~ 0
MISO
Text HLabel 6900 3750 2    50   Input ~ 0
NRST
Text HLabel 6900 3850 2    50   Input ~ 0
BUSY
Text HLabel 6900 3950 2    50   Input ~ 0
DIO1
Wire Wire Line
	6900 3350 6850 3350
Wire Wire Line
	6900 3450 6850 3450
Wire Wire Line
	6900 3550 6850 3550
Wire Wire Line
	6900 3650 6850 3650
Wire Wire Line
	6900 3750 6850 3750
Wire Wire Line
	6900 3850 6850 3850
Wire Wire Line
	6900 3950 6850 3950
$Comp
L SMA-J-P-H-ST-EM1:SMA-J-P-H-ST-EM1 J4
U 1 1 611F23B3
P 4500 3400
F 0 "J4" H 4492 3707 50  0000 C CNN
F 1 "SMA-J-P-H-ST-EM1" H 4492 3616 50  0000 C CNN
F 2 "others:SMA-J-P-H-ST-EM1" H 4500 3400 50  0001 L BNN
F 3 "" H 4500 3400 50  0001 L BNN
F 4 "3.675mm" H 4500 3400 50  0001 L BNN "MAXIMUM_PACKAGE_HEIGHT"
F 5 "Samtec" H 4500 3400 50  0001 L BNN "MANUFACTURER"
F 6 "G" H 4500 3400 50  0001 L BNN "PARTREV"
F 7 "Manufacturer Recommendations" H 4500 3400 50  0001 L BNN "STANDARD"
	1    4500 3400
	1    0    0    -1  
$EndComp
Wire Wire Line
	5050 3300 4600 3300
$Comp
L power:GND #PWR?
U 1 1 611F0AA9
P 5000 4000
AR Path="/6111A211/611F0AA9" Ref="#PWR?"  Part="1" 
AR Path="/6111A19E/611F0AA9" Ref="#PWR057"  Part="1" 
F 0 "#PWR057" H 5000 3750 50  0001 C CNN
F 1 "GND" H 5005 3827 50  0000 C CNN
F 2 "" H 5000 4000 50  0001 C CNN
F 3 "" H 5000 4000 50  0001 C CNN
	1    5000 4000
	1    0    0    -1  
$EndComp
$Comp
L E22-900M22S:E22-900M22S U9
U 1 1 61138FFA
P 6050 3750
F 0 "U9" H 6050 3750 50  0001 L BNN
F 1 "E22-900M22S" H 6050 3750 50  0001 L BNN
F 2 "others:E22-900M22S" H 6050 3750 50  0001 L BNN
F 3 "" H 6050 3750 50  0001 L BNN
	1    6050 3750
	1    0    0    -1  
$EndComp
$Comp
L power:GND #PWR?
U 1 1 611F42C4
P 4650 3450
AR Path="/6111A211/611F42C4" Ref="#PWR?"  Part="1" 
AR Path="/6111A19E/611F42C4" Ref="#PWR056"  Part="1" 
F 0 "#PWR056" H 4650 3200 50  0001 C CNN
F 1 "GND" H 4655 3277 50  0000 C CNN
F 2 "" H 4650 3450 50  0001 C CNN
F 3 "" H 4650 3450 50  0001 C CNN
	1    4650 3450
	1    0    0    -1  
$EndComp
Wire Wire Line
	4650 3450 4650 3400
Wire Wire Line
	4650 3400 4600 3400
Text HLabel 6900 4050 2    50   Input ~ 0
TXEN
Wire Wire Line
	6900 4050 6850 4050
$EndSCHEMATC
