EESchema Schematic File Version 4
EELAYER 30 0
EELAYER END
$Descr A4 11693 8268
encoding utf-8
Sheet 2 11
Title ""
Date ""
Rev ""
Comp ""
Comment1 ""
Comment2 ""
Comment3 ""
Comment4 ""
$EndDescr
$Comp
L TPS63070RNMT:TPS630702RNMR U1
U 1 1 60AAA908
P 3750 2550
F 0 "U1" H 3750 3320 50  0000 C CNN
F 1 "TPS630702RNMR" H 3750 3229 50  0000 C CNN
F 2 "others:TPS63070RNMT" H 3750 2550 50  0001 L BNN
F 3 "" H 3750 2550 50  0001 L BNN
	1    3750 2550
	1    0    0    -1  
$EndComp
$Comp
L XFL4020-102MEC:XFL4020-102MEC L1
U 1 1 60AAC7A2
P 3750 1650
F 0 "L1" H 3750 1831 50  0000 C CNN
F 1 "XFL4020-102MEC" H 3750 1740 50  0000 C CNN
F 2 "others:XFL4020-102MEC" H 3750 1650 50  0001 L BNN
F 3 "" H 3750 1650 50  0001 L BNN
F 4 "Power inductor, shielded, 20% tol, SMT, RoHS, halogen free" H 3750 1650 50  0001 L BNN "DESCRIPTION"
F 5 "2.1mm" H 3750 1650 50  0001 L BNN "MAXIMUM_PACKAGE_HEIGHT"
F 6 "Coilcraft" H 3750 1650 50  0001 L BNN "MANUFACTURER"
F 7 "11/02/18" H 3750 1650 50  0001 L BNN "PARTREV"
F 8 "Manufacturer Recommendations" H 3750 1650 50  0001 L BNN "STANDARD"
	1    3750 1650
	1    0    0    -1  
$EndComp
Wire Wire Line
	4450 2050 4600 2050
Wire Wire Line
	4600 2050 4600 1650
Wire Wire Line
	4600 1650 4250 1650
Wire Wire Line
	3250 1650 2900 1650
Wire Wire Line
	2900 1650 2900 2050
Wire Wire Line
	2900 2050 3050 2050
$Comp
L 805_cap:Cap C?
U 1 1 60AAF6FC
P 6050 2000
AR Path="/609302C0/60AAF6FC" Ref="C?"  Part="1" 
AR Path="/6093034B/60AAF6FC" Ref="C?"  Part="1" 
AR Path="/6092FBF4/60AAF6FC" Ref="C?"  Part="1" 
AR Path="/6115C67C/60AAF6FC" Ref="C2"  Part="1" 
F 0 "C2" V 6054 2103 50  0000 L CNN
F 1 "22uF" V 6145 2103 50  0000 L CNN
F 2 "Capacitor_SMD:C_0805_2012Metric" H 6050 2000 50  0001 L BNN
F 3 "" H 6050 2000 50  0001 L BNN
	1    6050 2000
	0    1    1    0   
$EndComp
$Comp
L Device:R_US R?
U 1 1 60AB02A2
P 5350 2250
AR Path="/609302C0/60AB02A2" Ref="R?"  Part="1" 
AR Path="/6093043F/60AB02A2" Ref="R?"  Part="1" 
AR Path="/6092FBF4/60AB02A2" Ref="R?"  Part="1" 
AR Path="/6115C67C/60AB02A2" Ref="R3"  Part="1" 
F 0 "R3" H 5418 2296 50  0000 L CNN
F 1 "470K %1" H 5418 2205 50  0000 L CNN
F 2 "Resistor_SMD:R_0805_2012Metric" V 5390 2240 50  0001 C CNN
F 3 "~" H 5350 2250 50  0001 C CNN
	1    5350 2250
	1    0    0    -1  
$EndComp
$Comp
L 805_cap:Cap C?
U 1 1 60AB0A25
P 6450 2000
AR Path="/609302C0/60AB0A25" Ref="C?"  Part="1" 
AR Path="/6093034B/60AB0A25" Ref="C?"  Part="1" 
AR Path="/6092FBF4/60AB0A25" Ref="C?"  Part="1" 
AR Path="/6115C67C/60AB0A25" Ref="C3"  Part="1" 
F 0 "C3" V 6454 2103 50  0000 L CNN
F 1 "22uF" V 6545 2103 50  0000 L CNN
F 2 "Capacitor_SMD:C_0805_2012Metric" H 6450 2000 50  0001 L BNN
F 3 "" H 6450 2000 50  0001 L BNN
	1    6450 2000
	0    1    1    0   
$EndComp
$Comp
L 805_cap:Cap C?
U 1 1 60AB0C66
P 6850 2000
AR Path="/609302C0/60AB0C66" Ref="C?"  Part="1" 
AR Path="/6093034B/60AB0C66" Ref="C?"  Part="1" 
AR Path="/6092FBF4/60AB0C66" Ref="C?"  Part="1" 
AR Path="/6115C67C/60AB0C66" Ref="C4"  Part="1" 
F 0 "C4" V 6854 2103 50  0000 L CNN
F 1 "22uF" V 6945 2103 50  0000 L CNN
F 2 "Capacitor_SMD:C_0805_2012Metric" H 6850 2000 50  0001 L BNN
F 3 "" H 6850 2000 50  0001 L BNN
	1    6850 2000
	0    1    1    0   
$EndComp
$Comp
L 805_cap:Cap C?
U 1 1 60AB1EC5
P 5000 2000
AR Path="/609302C0/60AB1EC5" Ref="C?"  Part="1" 
AR Path="/6093034B/60AB1EC5" Ref="C?"  Part="1" 
AR Path="/6092FBF4/60AB1EC5" Ref="C?"  Part="1" 
AR Path="/6115C67C/60AB1EC5" Ref="C1"  Part="1" 
F 0 "C1" V 5004 2103 50  0000 L CNN
F 1 "10uF" V 5095 2103 50  0000 L CNN
F 2 "Capacitor_SMD:C_0805_2012Metric" H 5000 2000 50  0001 L BNN
F 3 "" H 5000 2000 50  0001 L BNN
	1    5000 2000
	0    1    1    0   
$EndComp
$Comp
L 805_cap:Cap C?
U 1 1 60AB2118
P 2050 2150
AR Path="/609302C0/60AB2118" Ref="C?"  Part="1" 
AR Path="/6093034B/60AB2118" Ref="C?"  Part="1" 
AR Path="/6092FBF4/60AB2118" Ref="C?"  Part="1" 
AR Path="/6115C67C/60AB2118" Ref="C5"  Part="1" 
F 0 "C5" V 2054 2253 50  0000 L CNN
F 1 "22uF" V 2145 2253 50  0000 L CNN
F 2 "Capacitor_SMD:C_0805_2012Metric" H 2050 2150 50  0001 L BNN
F 3 "" H 2050 2150 50  0001 L BNN
	1    2050 2150
	0    1    1    0   
$EndComp
$Comp
L 805_cap:Cap C?
U 1 1 60AB236D
P 2550 2150
AR Path="/609302C0/60AB236D" Ref="C?"  Part="1" 
AR Path="/6093034B/60AB236D" Ref="C?"  Part="1" 
AR Path="/6092FBF4/60AB236D" Ref="C?"  Part="1" 
AR Path="/6115C67C/60AB236D" Ref="C6"  Part="1" 
F 0 "C6" V 2554 2253 50  0000 L CNN
F 1 "10uF" V 2645 2253 50  0000 L CNN
F 2 "Capacitor_SMD:C_0805_2012Metric" H 2550 2150 50  0001 L BNN
F 3 "" H 2550 2150 50  0001 L BNN
	1    2550 2150
	0    1    1    0   
$EndComp
$Comp
L 805_cap:Cap C?
U 1 1 60AB24E7
P 3000 3200
AR Path="/609302C0/60AB24E7" Ref="C?"  Part="1" 
AR Path="/6093034B/60AB24E7" Ref="C?"  Part="1" 
AR Path="/6092FBF4/60AB24E7" Ref="C?"  Part="1" 
AR Path="/6115C67C/60AB24E7" Ref="C7"  Part="1" 
F 0 "C7" V 3004 3303 50  0000 L CNN
F 1 "100nF" V 3095 3303 50  0000 L CNN
F 2 "Capacitor_SMD:C_0805_2012Metric" H 3000 3200 50  0001 L BNN
F 3 "" H 3000 3200 50  0001 L BNN
	1    3000 3200
	0    1    1    0   
$EndComp
$Comp
L Device:R_US R?
U 1 1 60AB2D62
P 5350 2600
AR Path="/609302C0/60AB2D62" Ref="R?"  Part="1" 
AR Path="/6093043F/60AB2D62" Ref="R?"  Part="1" 
AR Path="/6092FBF4/60AB2D62" Ref="R?"  Part="1" 
AR Path="/6115C67C/60AB2D62" Ref="R5"  Part="1" 
F 0 "R5" H 5418 2646 50  0000 L CNN
F 1 "150K %1" H 5418 2555 50  0000 L CNN
F 2 "Resistor_SMD:R_0805_2012Metric" V 5390 2590 50  0001 C CNN
F 3 "~" H 5350 2600 50  0001 C CNN
	1    5350 2600
	1    0    0    -1  
$EndComp
$Comp
L Device:R_US R?
U 1 1 60AB2FAB
P 2400 2700
AR Path="/609302C0/60AB2FAB" Ref="R?"  Part="1" 
AR Path="/6093043F/60AB2FAB" Ref="R?"  Part="1" 
AR Path="/6092FBF4/60AB2FAB" Ref="R?"  Part="1" 
AR Path="/6115C67C/60AB2FAB" Ref="R6"  Part="1" 
F 0 "R6" H 2468 2746 50  0000 L CNN
F 1 "10K" H 2468 2655 50  0000 L CNN
F 2 "Resistor_SMD:R_0805_2012Metric" V 2440 2690 50  0001 C CNN
F 3 "~" H 2400 2700 50  0001 C CNN
	1    2400 2700
	1    0    0    -1  
$EndComp
$Comp
L power:GND #PWR04
U 1 1 60AB4052
P 5000 2250
F 0 "#PWR04" H 5000 2000 50  0001 C CNN
F 1 "GND" H 5005 2077 50  0000 C CNN
F 2 "" H 5000 2250 50  0001 C CNN
F 3 "" H 5000 2250 50  0001 C CNN
	1    5000 2250
	1    0    0    -1  
$EndComp
$Comp
L power:GND #PWR05
U 1 1 60AB4CDA
P 6050 2250
F 0 "#PWR05" H 6050 2000 50  0001 C CNN
F 1 "GND" H 6055 2077 50  0000 C CNN
F 2 "" H 6050 2250 50  0001 C CNN
F 3 "" H 6050 2250 50  0001 C CNN
	1    6050 2250
	1    0    0    -1  
$EndComp
$Comp
L power:GND #PWR06
U 1 1 60AB4DD5
P 6450 2250
F 0 "#PWR06" H 6450 2000 50  0001 C CNN
F 1 "GND" H 6455 2077 50  0000 C CNN
F 2 "" H 6450 2250 50  0001 C CNN
F 3 "" H 6450 2250 50  0001 C CNN
	1    6450 2250
	1    0    0    -1  
$EndComp
$Comp
L power:GND #PWR07
U 1 1 60AB50CB
P 6850 2250
F 0 "#PWR07" H 6850 2000 50  0001 C CNN
F 1 "GND" H 6855 2077 50  0000 C CNN
F 2 "" H 6850 2250 50  0001 C CNN
F 3 "" H 6850 2250 50  0001 C CNN
	1    6850 2250
	1    0    0    -1  
$EndComp
$Comp
L power:GND #PWR011
U 1 1 60AB5318
P 5350 2800
F 0 "#PWR011" H 5350 2550 50  0001 C CNN
F 1 "GND" H 5355 2627 50  0000 C CNN
F 2 "" H 5350 2800 50  0001 C CNN
F 3 "" H 5350 2800 50  0001 C CNN
	1    5350 2800
	1    0    0    -1  
$EndComp
$Comp
L power:GND #PWR013
U 1 1 60AB54F3
P 3000 3450
F 0 "#PWR013" H 3000 3200 50  0001 C CNN
F 1 "GND" H 3005 3277 50  0000 C CNN
F 2 "" H 3000 3450 50  0001 C CNN
F 3 "" H 3000 3450 50  0001 C CNN
	1    3000 3450
	1    0    0    -1  
$EndComp
$Comp
L power:GND #PWR09
U 1 1 60AB5689
P 2550 2400
F 0 "#PWR09" H 2550 2150 50  0001 C CNN
F 1 "GND" H 2555 2227 50  0000 C CNN
F 2 "" H 2550 2400 50  0001 C CNN
F 3 "" H 2550 2400 50  0001 C CNN
	1    2550 2400
	1    0    0    -1  
$EndComp
$Comp
L power:GND #PWR08
U 1 1 60AB576E
P 2050 2400
F 0 "#PWR08" H 2050 2150 50  0001 C CNN
F 1 "GND" H 2055 2227 50  0000 C CNN
F 2 "" H 2050 2400 50  0001 C CNN
F 3 "" H 2050 2400 50  0001 C CNN
	1    2050 2400
	1    0    0    -1  
$EndComp
Wire Wire Line
	4450 2400 5350 2400
Wire Wire Line
	5350 2400 5350 2450
Connection ~ 5350 2400
Wire Wire Line
	5350 2100 5350 1900
Wire Wire Line
	4750 1900 4750 2150
Wire Wire Line
	4750 2150 4450 2150
$Comp
L power:GND #PWR012
U 1 1 60AB732E
P 4450 3100
F 0 "#PWR012" H 4450 2850 50  0001 C CNN
F 1 "GND" H 4455 2927 50  0000 C CNN
F 2 "" H 4450 3100 50  0001 C CNN
F 3 "" H 4450 3100 50  0001 C CNN
	1    4450 3100
	1    0    0    -1  
$EndComp
Wire Wire Line
	3050 3050 3000 3050
Wire Wire Line
	3000 3050 3000 3100
Wire Wire Line
	3050 2150 2800 2150
Wire Wire Line
	2800 2150 2800 2050
Wire Wire Line
	2400 2900 3050 2900
Connection ~ 2400 2050
Wire Wire Line
	2400 2050 2050 2050
$Comp
L power:VCC #PWR03
U 1 1 60ABD311
P 2050 2000
F 0 "#PWR03" H 2050 1850 50  0001 C CNN
F 1 "VCC" H 2065 2173 50  0000 C CNN
F 2 "" H 2050 2000 50  0001 C CNN
F 3 "" H 2050 2000 50  0001 C CNN
	1    2050 2000
	1    0    0    -1  
$EndComp
$Comp
L Device:R_US R?
U 1 1 60ACA012
P 9600 1800
AR Path="/609302C0/60ACA012" Ref="R?"  Part="1" 
AR Path="/6093043F/60ACA012" Ref="R?"  Part="1" 
AR Path="/6092FBF4/60ACA012" Ref="R?"  Part="1" 
AR Path="/6115C67C/60ACA012" Ref="R1"  Part="1" 
F 0 "R1" H 9668 1846 50  0000 L CNN
F 1 "56K %1" H 9668 1755 50  0000 L CNN
F 2 "Resistor_SMD:R_0805_2012Metric" V 9640 1790 50  0001 C CNN
F 3 "~" H 9600 1800 50  0001 C CNN
	1    9600 1800
	1    0    0    -1  
$EndComp
$Comp
L Device:R_US R?
U 1 1 60ACA018
P 9600 2200
AR Path="/609302C0/60ACA018" Ref="R?"  Part="1" 
AR Path="/6093043F/60ACA018" Ref="R?"  Part="1" 
AR Path="/6092FBF4/60ACA018" Ref="R?"  Part="1" 
AR Path="/6115C67C/60ACA018" Ref="R2"  Part="1" 
F 0 "R2" H 9668 2246 50  0000 L CNN
F 1 "10K %1" H 9668 2155 50  0000 L CNN
F 2 "Resistor_SMD:R_0805_2012Metric" V 9640 2190 50  0001 C CNN
F 3 "~" H 9600 2200 50  0001 C CNN
	1    9600 2200
	1    0    0    -1  
$EndComp
$Comp
L power:GND #PWR010
U 1 1 60ACA01E
P 9600 2400
F 0 "#PWR010" H 9600 2150 50  0001 C CNN
F 1 "GND" H 9605 2227 50  0000 C CNN
F 2 "" H 9600 2400 50  0001 C CNN
F 3 "" H 9600 2400 50  0001 C CNN
	1    9600 2400
	1    0    0    -1  
$EndComp
Wire Wire Line
	9600 2000 9600 2050
Text HLabel 9450 2000 0    50   Input ~ 0
Bat_D
Wire Wire Line
	9450 2000 9600 2000
Wire Wire Line
	2400 2850 2400 2900
Wire Wire Line
	2400 2050 2400 2550
Wire Wire Line
	2050 2050 2050 2000
Wire Wire Line
	9600 1650 9600 1550
$Comp
L Device:R_US R?
U 1 1 6098B622
P 5700 2250
AR Path="/609302C0/6098B622" Ref="R?"  Part="1" 
AR Path="/6093043F/6098B622" Ref="R?"  Part="1" 
AR Path="/6092FBF4/6098B622" Ref="R?"  Part="1" 
AR Path="/6115C67C/6098B622" Ref="R4"  Part="1" 
F 0 "R4" H 5768 2296 50  0000 L CNN
F 1 "100K" H 5768 2205 50  0000 L CNN
F 2 "Resistor_SMD:R_0805_2012Metric" V 5740 2240 50  0001 C CNN
F 3 "~" H 5700 2250 50  0001 C CNN
	1    5700 2250
	1    0    0    -1  
$EndComp
Wire Wire Line
	4450 2650 5000 2650
Wire Wire Line
	5000 2650 5000 3050
Wire Wire Line
	5000 3050 5700 3050
Wire Wire Line
	5700 3050 5700 2400
Wire Wire Line
	5700 2100 5700 1900
Wire Wire Line
	5700 1900 5350 1900
Connection ~ 5700 1900
Connection ~ 5350 1900
Wire Wire Line
	9600 2400 9600 2350
Wire Wire Line
	3000 3450 3000 3400
Wire Wire Line
	2050 2400 2050 2350
Wire Wire Line
	2550 2400 2550 2350
Wire Wire Line
	5350 2800 5350 2750
Wire Wire Line
	6850 2250 6850 2200
Wire Wire Line
	6450 2250 6450 2200
Wire Wire Line
	6050 2250 6050 2200
Wire Wire Line
	5000 2250 5000 2200
Wire Wire Line
	9600 2000 9600 1950
Connection ~ 9600 2000
Wire Wire Line
	4750 1900 5000 1900
Wire Wire Line
	5700 1900 6050 1900
Wire Wire Line
	2400 2050 2550 2050
Wire Wire Line
	4450 2750 4450 2850
Wire Wire Line
	3050 2650 3050 2900
Connection ~ 2050 2050
Connection ~ 2550 2050
Wire Wire Line
	2550 2050 2800 2050
Connection ~ 5000 1900
Wire Wire Line
	5000 1900 5350 1900
Connection ~ 6050 1900
Wire Wire Line
	6050 1900 6450 1900
Connection ~ 6450 1900
Wire Wire Line
	6450 1900 6850 1900
$Comp
L power:+3.3V #PWR02
U 1 1 6117462E
P 6850 1900
F 0 "#PWR02" H 6850 1750 50  0001 C CNN
F 1 "+3.3V" H 6865 2073 50  0000 C CNN
F 2 "" H 6850 1900 50  0001 C CNN
F 3 "" H 6850 1900 50  0001 C CNN
	1    6850 1900
	1    0    0    -1  
$EndComp
Connection ~ 6850 1900
$Comp
L Connector:Jack-DC J2
U 1 1 612194AA
P 3800 5800
F 0 "J2" H 3857 6125 50  0000 C CNN
F 1 "Power pin" H 3857 6034 50  0000 C CNN
F 2 "others:1X02_LOCK_LONGPADS" H 3850 5760 50  0001 C CNN
F 3 "~" H 3850 5760 50  0001 C CNN
	1    3800 5800
	1    0    0    -1  
$EndComp
$Comp
L power:VCC #PWR022
U 1 1 612194B0
P 4200 5650
F 0 "#PWR022" H 4200 5500 50  0001 C CNN
F 1 "VCC" H 4215 5823 50  0000 C CNN
F 2 "" H 4200 5650 50  0001 C CNN
F 3 "" H 4200 5650 50  0001 C CNN
	1    4200 5650
	1    0    0    -1  
$EndComp
$Comp
L power:GND #PWR024
U 1 1 612194B6
P 4200 5950
F 0 "#PWR024" H 4200 5700 50  0001 C CNN
F 1 "GND" H 4205 5777 50  0000 C CNN
F 2 "" H 4200 5950 50  0001 C CNN
F 3 "" H 4200 5950 50  0001 C CNN
	1    4200 5950
	1    0    0    -1  
$EndComp
Wire Wire Line
	4100 5700 4200 5700
Wire Wire Line
	4200 5700 4200 5650
Wire Wire Line
	4100 5900 4200 5900
Wire Wire Line
	4200 5900 4200 5950
$Comp
L Connector:Jack-DC J1
U 1 1 6121B63A
P 2750 5800
F 0 "J1" H 2807 6125 50  0000 C CNN
F 1 "Power pin" H 2807 6034 50  0000 C CNN
F 2 "others:1X02_LOCK_LONGPADS" H 2800 5760 50  0001 C CNN
F 3 "~" H 2800 5760 50  0001 C CNN
	1    2750 5800
	1    0    0    -1  
$EndComp
$Comp
L power:VCC #PWR021
U 1 1 6121B640
P 3150 5650
F 0 "#PWR021" H 3150 5500 50  0001 C CNN
F 1 "VCC" H 3165 5823 50  0000 C CNN
F 2 "" H 3150 5650 50  0001 C CNN
F 3 "" H 3150 5650 50  0001 C CNN
	1    3150 5650
	1    0    0    -1  
$EndComp
$Comp
L power:GND #PWR023
U 1 1 6121B646
P 3150 5950
F 0 "#PWR023" H 3150 5700 50  0001 C CNN
F 1 "GND" H 3155 5777 50  0000 C CNN
F 2 "" H 3150 5950 50  0001 C CNN
F 3 "" H 3150 5950 50  0001 C CNN
	1    3150 5950
	1    0    0    -1  
$EndComp
Wire Wire Line
	3050 5700 3150 5700
Wire Wire Line
	3150 5700 3150 5650
Wire Wire Line
	3050 5900 3150 5900
Wire Wire Line
	3150 5900 3150 5950
$Comp
L Device:R_US R?
U 1 1 612037CD
P 7900 4050
AR Path="/609302C0/612037CD" Ref="R?"  Part="1" 
AR Path="/6093043F/612037CD" Ref="R?"  Part="1" 
AR Path="/6092FBF4/612037CD" Ref="R?"  Part="1" 
AR Path="/6115C67C/612037CD" Ref="R7"  Part="1" 
AR Path="/61178059/612037CD" Ref="R?"  Part="1" 
F 0 "R7" V 8000 4000 50  0000 L CNN
F 1 "10K" V 7800 3950 50  0000 L CNN
F 2 "Resistor_SMD:R_0805_2012Metric" V 7940 4040 50  0001 C CNN
F 3 "~" H 7900 4050 50  0001 C CNN
	1    7900 4050
	0    -1   -1   0   
$EndComp
Wire Wire Line
	7550 4250 7550 4050
Wire Wire Line
	7550 4050 7750 4050
Wire Wire Line
	8150 4050 8050 4050
$Comp
L power:+3.3V #PWR014
U 1 1 612037D7
P 7550 3950
AR Path="/6115C67C/612037D7" Ref="#PWR014"  Part="1" 
AR Path="/611727C1/612037D7" Ref="#PWR?"  Part="1" 
AR Path="/61178059/612037D7" Ref="#PWR?"  Part="1" 
F 0 "#PWR014" H 7550 3800 50  0001 C CNN
F 1 "+3.3V" H 7565 4123 50  0000 C CNN
F 2 "" H 7550 3950 50  0001 C CNN
F 3 "" H 7550 3950 50  0001 C CNN
	1    7550 3950
	1    0    0    -1  
$EndComp
Wire Wire Line
	7550 4050 7550 3950
Connection ~ 7550 4050
$Comp
L Device:Q_PMOS_GSD Q?
U 1 1 612037DF
P 7650 4450
AR Path="/61178059/612037DF" Ref="Q?"  Part="1" 
AR Path="/6115C67C/612037DF" Ref="Q1"  Part="1" 
F 0 "Q1" H 7855 4404 50  0000 L CNN
F 1 "Q_PMOS_GSD" H 7855 4495 50  0000 L CNN
F 2 "digikey-footprints:SOT-23-3" H 7850 4550 50  0001 C CNN
F 3 "~" H 7650 4450 50  0001 C CNN
	1    7650 4450
	-1   0    0    1   
$EndComp
Wire Wire Line
	8150 4050 8150 4450
Wire Wire Line
	7850 4450 8150 4450
Connection ~ 8150 4450
Wire Wire Line
	8150 4450 8250 4450
Text HLabel 8250 4450 2    50   Input ~ 0
CAM_Power
$Comp
L MCP1826S-5002E_DB:MCP1811 U3
U 1 1 6120F099
P 8100 5150
F 0 "U3" H 8250 5620 50  0000 C CNN
F 1 "MCP1811-1.2" H 8250 5529 50  0000 C CNN
F 2 "digikey-footprints:SOT-23-3" H 8050 5150 50  0001 L BNN
F 3 "" H 8100 5150 50  0001 L BNN
	1    8100 5150
	1    0    0    -1  
$EndComp
$Comp
L MCP1826S-5002E_DB:MCP1811 U2
U 1 1 61212864
P 7000 5100
F 0 "U2" H 7150 5570 50  0000 C CNN
F 1 "MCP1811-2.8" H 7150 5479 50  0000 C CNN
F 2 "digikey-footprints:SOT-23-3" H 6950 5100 50  0001 L BNN
F 3 "" H 7000 5100 50  0001 L BNN
	1    7000 5100
	-1   0    0    -1  
$EndComp
Wire Wire Line
	7550 4650 7550 4800
Wire Wire Line
	7550 4950 7700 4950
Wire Wire Line
	7400 4900 7550 4900
$Comp
L 805_cap:Cap C?
U 1 1 6121697D
P 7550 5250
AR Path="/609302C0/6121697D" Ref="C?"  Part="1" 
AR Path="/6093034B/6121697D" Ref="C?"  Part="1" 
AR Path="/6092FBF4/6121697D" Ref="C?"  Part="1" 
AR Path="/6115C67C/6121697D" Ref="C12"  Part="1" 
F 0 "C12" V 7554 5353 50  0000 L CNN
F 1 "1uF" V 7645 5353 50  0000 L CNN
F 2 "Capacitor_SMD:C_0805_2012Metric" H 7550 5250 50  0001 L BNN
F 3 "" H 7550 5250 50  0001 L BNN
	1    7550 5250
	0    1    1    0   
$EndComp
$Comp
L power:GND #PWR020
U 1 1 61217D31
P 7550 5500
F 0 "#PWR020" H 7550 5250 50  0001 C CNN
F 1 "GND" H 7555 5327 50  0000 C CNN
F 2 "" H 7550 5500 50  0001 C CNN
F 3 "" H 7550 5500 50  0001 C CNN
	1    7550 5500
	1    0    0    -1  
$EndComp
Wire Wire Line
	7550 5450 7550 5500
$Comp
L 805_cap:Cap C?
U 1 1 6121C084
P 9150 5050
AR Path="/609302C0/6121C084" Ref="C?"  Part="1" 
AR Path="/6093034B/6121C084" Ref="C?"  Part="1" 
AR Path="/6092FBF4/6121C084" Ref="C?"  Part="1" 
AR Path="/6115C67C/6121C084" Ref="C10"  Part="1" 
F 0 "C10" V 9154 5153 50  0000 L CNN
F 1 "100nF" V 9245 5153 50  0000 L CNN
F 2 "Capacitor_SMD:C_0805_2012Metric" H 9150 5050 50  0001 L BNN
F 3 "" H 9150 5050 50  0001 L BNN
	1    9150 5050
	0    1    1    0   
$EndComp
$Comp
L 805_cap:Cap C?
U 1 1 6121D66E
P 9550 5050
AR Path="/609302C0/6121D66E" Ref="C?"  Part="1" 
AR Path="/6093034B/6121D66E" Ref="C?"  Part="1" 
AR Path="/6092FBF4/6121D66E" Ref="C?"  Part="1" 
AR Path="/6115C67C/6121D66E" Ref="C11"  Part="1" 
F 0 "C11" V 9554 5153 50  0000 L CNN
F 1 "10uF" V 9645 5153 50  0000 L CNN
F 2 "Capacitor_SMD:C_0805_2012Metric" H 9550 5050 50  0001 L BNN
F 3 "" H 9550 5050 50  0001 L BNN
	1    9550 5050
	0    1    1    0   
$EndComp
$Comp
L 805_cap:Cap C?
U 1 1 6121F518
P 5850 5000
AR Path="/609302C0/6121F518" Ref="C?"  Part="1" 
AR Path="/6093034B/6121F518" Ref="C?"  Part="1" 
AR Path="/6092FBF4/6121F518" Ref="C?"  Part="1" 
AR Path="/6115C67C/6121F518" Ref="C9"  Part="1" 
F 0 "C9" V 5854 5103 50  0000 L CNN
F 1 "100nF" V 5945 5103 50  0000 L CNN
F 2 "Capacitor_SMD:C_0805_2012Metric" H 5850 5000 50  0001 L BNN
F 3 "" H 5850 5000 50  0001 L BNN
	1    5850 5000
	0    1    1    0   
$EndComp
$Comp
L 805_cap:Cap C?
U 1 1 6121F51E
P 5450 5000
AR Path="/609302C0/6121F51E" Ref="C?"  Part="1" 
AR Path="/6093034B/6121F51E" Ref="C?"  Part="1" 
AR Path="/6092FBF4/6121F51E" Ref="C?"  Part="1" 
AR Path="/6115C67C/6121F51E" Ref="C8"  Part="1" 
F 0 "C8" V 5454 5103 50  0000 L CNN
F 1 "10uF" V 5545 5103 50  0000 L CNN
F 2 "Capacitor_SMD:C_0805_2012Metric" H 5450 5000 50  0001 L BNN
F 3 "" H 5450 5000 50  0001 L BNN
	1    5450 5000
	0    1    1    0   
$EndComp
Connection ~ 7550 4900
Wire Wire Line
	7550 4900 7550 4950
Wire Wire Line
	6300 4900 5850 4900
Connection ~ 5850 4900
Wire Wire Line
	5850 4900 5650 4900
Wire Wire Line
	5450 5200 5650 5200
Wire Wire Line
	5850 5200 6300 5200
Wire Wire Line
	6300 5200 6300 5100
Connection ~ 5850 5200
Wire Wire Line
	8800 4950 9150 4950
Connection ~ 9150 4950
Wire Wire Line
	9150 4950 9350 4950
Wire Wire Line
	8800 5150 8800 5250
Wire Wire Line
	8800 5250 9150 5250
Connection ~ 9150 5250
Wire Wire Line
	9150 5250 9350 5250
Wire Wire Line
	7550 4950 7550 5150
Connection ~ 7550 4950
$Comp
L power:GND #PWR018
U 1 1 6123824D
P 5650 5300
F 0 "#PWR018" H 5650 5050 50  0001 C CNN
F 1 "GND" H 5655 5127 50  0000 C CNN
F 2 "" H 5650 5300 50  0001 C CNN
F 3 "" H 5650 5300 50  0001 C CNN
	1    5650 5300
	1    0    0    -1  
$EndComp
$Comp
L power:GND #PWR019
U 1 1 61239BBB
P 9350 5300
F 0 "#PWR019" H 9350 5050 50  0001 C CNN
F 1 "GND" H 9355 5127 50  0000 C CNN
F 2 "" H 9350 5300 50  0001 C CNN
F 3 "" H 9350 5300 50  0001 C CNN
	1    9350 5300
	1    0    0    -1  
$EndComp
Wire Wire Line
	9350 5300 9350 5250
Connection ~ 9350 5250
Wire Wire Line
	9350 5250 9550 5250
Wire Wire Line
	5650 5300 5650 5200
Connection ~ 5650 5200
Wire Wire Line
	5650 5200 5850 5200
$Comp
L power:+1V2 #PWR?
U 1 1 61241716
P 9350 4900
AR Path="/6111A211/61241716" Ref="#PWR?"  Part="1" 
AR Path="/6115C67C/61241716" Ref="#PWR017"  Part="1" 
F 0 "#PWR017" H 9350 4750 50  0001 C CNN
F 1 "+1V2" H 9365 5073 50  0000 C CNN
F 2 "" H 9350 4900 50  0001 C CNN
F 3 "" H 9350 4900 50  0001 C CNN
	1    9350 4900
	1    0    0    -1  
$EndComp
$Comp
L power:+2V8 #PWR?
U 1 1 6124171C
P 5650 4850
AR Path="/6111A211/6124171C" Ref="#PWR?"  Part="1" 
AR Path="/6115C67C/6124171C" Ref="#PWR016"  Part="1" 
F 0 "#PWR016" H 5650 4700 50  0001 C CNN
F 1 "+2V8" H 5665 5023 50  0000 C CNN
F 2 "" H 5650 4850 50  0001 C CNN
F 3 "" H 5650 4850 50  0001 C CNN
	1    5650 4850
	1    0    0    -1  
$EndComp
Wire Wire Line
	9350 4950 9350 4900
Connection ~ 9350 4950
Wire Wire Line
	9350 4950 9550 4950
Wire Wire Line
	5650 4900 5650 4850
Connection ~ 5650 4900
Wire Wire Line
	5650 4900 5450 4900
Wire Wire Line
	7700 4800 7550 4800
Connection ~ 7550 4800
Wire Wire Line
	7550 4800 7550 4900
Wire Wire Line
	4450 3100 4450 3050
Wire Wire Line
	4450 2950 4450 3050
Connection ~ 4450 3050
Wire Wire Line
	4450 2950 4450 2850
Connection ~ 4450 2950
Connection ~ 4450 2850
$Comp
L power:+3V0 #PWR?
U 1 1 611F77C2
P 7700 4800
AR Path="/6111A211/611F77C2" Ref="#PWR?"  Part="1" 
AR Path="/6115C67C/611F77C2" Ref="#PWR0101"  Part="1" 
F 0 "#PWR0101" H 7700 4650 50  0001 C CNN
F 1 "+3V0" H 7715 4973 50  0000 C CNN
F 2 "" H 7700 4800 50  0001 C CNN
F 3 "" H 7700 4800 50  0001 C CNN
	1    7700 4800
	1    0    0    -1  
$EndComp
$Comp
L power:VCC #PWR0107
U 1 1 61314371
P 9600 1550
F 0 "#PWR0107" H 9600 1400 50  0001 C CNN
F 1 "VCC" H 9615 1723 50  0000 C CNN
F 2 "" H 9600 1550 50  0001 C CNN
F 3 "" H 9600 1550 50  0001 C CNN
	1    9600 1550
	1    0    0    -1  
$EndComp
Wire Wire Line
	2550 2400 3050 2400
Wire Wire Line
	3050 2400 3050 2550
Connection ~ 2550 2400
$EndSCHEMATC
