function Decoder(bytes, port) {

  var decoded = {};

decoded.a = (bytes[0])
decoded.a1 = (bytes[1])
decoded.a2 = (bytes[2])
decoded.a3 = (bytes[3])
decoded.a4 = (bytes[4])
decoded.a5= (bytes[5])
decoded.a6 = (bytes[6])
decoded.a7 = (bytes[7])
decoded.a8 = (bytes[8])
decoded.a9 = (bytes[9])
decoded.a10 = (bytes[10])
decoded.a11 = (bytes[11])
decoded.a12 = (bytes[12])
decoded.a13 = (bytes[13])
decoded.a14 = (bytes[14])
decoded.a15 = (bytes[15])
decoded.a16 = (bytes[16])
decoded.a17 = (bytes[17])
decoded.a18 = (bytes[18])
decoded.a19 = (bytes[19])
decoded.a20 = (bytes[20])
decoded.a21 = (bytes[21])
decoded.a22 = (bytes[22])
decoded.a23 = (bytes[23])
decoded.a24 = (bytes[24])
decoded.a25 = (bytes[25])
decoded.a26 = (bytes[26])
decoded.a27 = (bytes[27])
decoded.a28 = (bytes[28])
decoded.a29 = (bytes[29])
decoded.a30 = (bytes[30])
decoded.a31 = (bytes[31])
decoded.a32 = (bytes[32])
decoded.a33 = (bytes[33])
decoded.a34 = (bytes[34])
decoded.a35 = (bytes[35])
decoded.a36 = (bytes[36])
decoded.a37 = (bytes[37])
decoded.a38 = (bytes[38])
decoded.a39 = (bytes[39])
decoded.a40 = (bytes[40])
decoded.a41 = (bytes[41])
decoded.a42 = (bytes[42])
decoded.a43 = (bytes[43])
decoded.a44 = (bytes[44])
decoded.a45 = (bytes[45])
decoded.a46 = (bytes[46])
decoded.a47 = (bytes[47])
decoded.a48 = (bytes[48])
decoded.a49 = (bytes[49])
decoded.a50 = (bytes[50])
decoded.a51 = (bytes[51])
decoded.a52 = (bytes[52])
decoded.a53 = (bytes[53])
decoded.a54 = (bytes[54])
decoded.a55 = (bytes[55])
decoded.a56 = (bytes[56])
decoded.a57 = (bytes[57])
decoded.a58 = (bytes[58])
decoded.a59 = (bytes[59])
decoded.a60 = (bytes[60])
decoded.a61 = (bytes[61])
decoded.a62 = (bytes[62])
decoded.a63 = (bytes[63])
decoded.a64 = (bytes[64])
decoded.a65 = (bytes[65])
decoded.a66 = (bytes[66])
decoded.a67 = (bytes[67])
decoded.a68 = (bytes[68])
decoded.a69 = (bytes[69])
decoded.a70 = (bytes[70])
decoded.a71 = (bytes[71])
decoded.a72 = (bytes[72])
decoded.a73 = (bytes[73])
decoded.a74 = (bytes[74])
decoded.a75 = (bytes[75])
decoded.a76 = (bytes[76])
decoded.a77 = (bytes[77])
decoded.a78 = (bytes[78])
decoded.a79 = (bytes[79])
decoded.a80 = (bytes[80])
decoded.a81 = (bytes[81])
decoded.a82 = (bytes[82])
decoded.a83 = (bytes[83])
decoded.a84 = (bytes[84])
decoded.a85 = (bytes[85])
decoded.a86 = (bytes[86])
decoded.a87 = (bytes[87])
decoded.a88 = (bytes[88])




var decodedPayload = {

  "data-0": decoded.a,
  "data-1": decoded.a1,
  "data-2": decoded.a2,
  "data-3": decoded.a3,
  "data-4": decoded.a4,
  "data-5": decoded.a5,
  "data-6": decoded.a6,
  "data-7": decoded.a7,
  "data-8": decoded.a8,
  "data-9": decoded.a9,
  "data-10": decoded.a10,
  "data-11": decoded.a11,
  "data-12": decoded.a12,
  "data-13": decoded.a13,
  "data-14": decoded.a14,
  "data-15": decoded.a15,
  "data-16": decoded.a16,
  "data-17": decoded.a17,
  "data-18": decoded.a18,
  "data-19": decoded.a19,
  "data-20": decoded.a20,
  "data-21": decoded.a21,
  "data-22": decoded.a22,
  "data-23": decoded.a23,
  "data-24": decoded.a24,
  "data-25": decoded.a25,
  "data-26": decoded.a26,
  "data-27": decoded.a27,
  "data-28": decoded.a28,
  "data-29": decoded.a29,
  "data-30": decoded.a30,
  "data-31": decoded.a31,
  "data-32": decoded.a32,
  "data-33": decoded.a33,
  "data-34": decoded.a34,
  "data-35": decoded.a35,
  "data-36": decoded.a36,
  "data-37": decoded.a37,
  "data-38": decoded.a38,
  "data-39": decoded.a39,
  "data-40": decoded.a40,
  "data-41": decoded.a41,
  "data-42": decoded.a42,
  "data-43": decoded.a43,
  "data-44": decoded.a44,
  "data-45": decoded.a45,
  "data-46": decoded.a46,
  "data-47": decoded.a47,
  "data-48": decoded.a48,
  "data-49": decoded.a49,
  "data-50": decoded.a50,
  "data-51": decoded.a51,
  "data-52": decoded.a52,
  "data-53": decoded.a53,
  "data-54": decoded.a54,
  "data-55": decoded.a55,
  "data-56": decoded.a56,
  "data-57": decoded.a57,
  "data-58": decoded.a58,
  "data-59": decoded.a59,
  "data-60": decoded.a60,
  "data-61": decoded.a61,
  "data-62": decoded.a62,
  "data-63": decoded.a63,
  "data-64": decoded.a64,
  "data-65": decoded.a65,
  "data-66": decoded.a66,
  "data-67": decoded.a67,
  "data-68": decoded.a68,
  "data-69": decoded.a69,
  "data-70": decoded.a70,
  "data-71": decoded.a71,
  "data-72": decoded.a72,
  "data-73": decoded.a73,
  "data-74": decoded.a74,
  "data-75": decoded.a75,
  "data-76": decoded.a76,
  "data-77": decoded.a77,
  "data-78": decoded.a78,
  "data-79": decoded.a79,
  "data-80": decoded.a80,
  "data-81": decoded.a81,
  "data-82": decoded.a82,
  "data-83": decoded.a83,
  "data-84": decoded.a84,
  "data-85": decoded.a85,
  "data-86": decoded.a86,
  "data-87": decoded.a87,
  "data-88": decoded.a88
 
 

};

  return Serialize(decodedPayload) }
}

// Generated: do not touch unless your Google Form fields have changed
var field_mapping = {
  "data-1": "entry.825491251",
  "data-2": "entry.141124206"
};
// End Generated

function Serialize(payload) {
  var str = [];
  for (var key in payload) {
    if (payload.hasOwnProperty(key)) {
      var name = encodeURIComponent(field_mapping[key]);
      var value = encodeURIComponent(payload[key]);
      str.push(name + "=" + value);
    }
  }
  return str.join("&");
}
// DO NOT REMOVE: Google Form Function
  
