(export (version D)
  (design
    (source "C:\\Users\\ahmet\\Desktop\\Kicad\\kicad appcent\\kicad appcent.sch")
    (date "12.05.2021 14:51:29")
    (tool "Eeschema (5.1.10)-1")
    (sheet (number 1) (name /) (tstamps /)
      (title_block
        (title)
        (company)
        (rev)
        (date)
        (source "kicad appcent.sch")
        (comment (number 1) (value ""))
        (comment (number 2) (value ""))
        (comment (number 3) (value ""))
        (comment (number 4) (value "")))))
  (components
    (comp (ref U1)
      (value CP2102N-A01-GQFN28)
      (footprint others:CP2102N-A01-GQFN28)
      (fields
        (field (name MANUFACTURER) "SILICON LABS")
        (field (name MAXIMUM_PACKAGE_HEIGHT) 0.8mm)
        (field (name PARTREV) 1.0)
        (field (name STANDARD) "IPC 7351B"))
      (libsource (lib kicad-appcent-rescue) (part CP2102N-A01-GQFN28-CP2102N-A01-GQFN28) (description ""))
      (sheetpath (names /) (tstamps /))
      (tstamp 609400EE))
    (comp (ref D1)
      (value SS24)
      (footprint others:SS24)
      (fields
        (field (name MANUFACTURER) "ON Semiconductor")
        (field (name MAXIMUM_PACKAGE_HEIGHT) "2.65 mm")
        (field (name PARTREV) 1.1.2)
        (field (name STANDARD) "IPC 7351B"))
      (libsource (lib kicad-appcent-rescue) (part SS24-SS24) (description ""))
      (sheetpath (names /) (tstamps /))
      (tstamp 609442AF))
    (comp (ref Q1)
      (value SS8050-G)
      (footprint others:SS8050-G)
      (fields
        (field (name DESCRIPTION) "Bipolar _BJT_ Transistor NPN 25V 1.5A 100MHz 300mW Surface Mount SOT-23")
        (field (name DIGI-KEY_PART_NUMBER) 641-1790-1-ND)
        (field (name DIGI-KEY_PURCHASE_URL) https://www.digikey.com/product-detail/en/comchip-technology/SS8050-G/641-1790-1-ND/6138954?utm_source=snapeda&utm_medium=aggregator&utm_campaign=symbol)
        (field (name MF) "Comchip Technology")
        (field (name MP) SS8050-G)
        (field (name PACKAGE) "TO-236 Comchip"))
      (libsource (lib kicad-appcent-rescue) (part SS8050-G-SS8050-G) (description ""))
      (sheetpath (names /) (tstamps /))
      (tstamp 60945846))
    (comp (ref Q2)
      (value SS8050-G)
      (footprint others:SS8050-G)
      (fields
        (field (name DESCRIPTION) "Bipolar _BJT_ Transistor NPN 25V 1.5A 100MHz 300mW Surface Mount SOT-23")
        (field (name DIGI-KEY_PART_NUMBER) 641-1790-1-ND)
        (field (name DIGI-KEY_PURCHASE_URL) https://www.digikey.com/product-detail/en/comchip-technology/SS8050-G/641-1790-1-ND/6138954?utm_source=snapeda&utm_medium=aggregator&utm_campaign=symbol)
        (field (name MF) "Comchip Technology")
        (field (name MP) SS8050-G)
        (field (name PACKAGE) "TO-236 Comchip"))
      (libsource (lib kicad-appcent-rescue) (part SS8050-G-SS8050-G) (description ""))
      (sheetpath (names /) (tstamps /))
      (tstamp 609465E8))
    (comp (ref U5)
      (value "ESP32-WROVER-B_(16MB)")
      (footprint others:ESP32-WROVER-B__16MB_)
      (fields
        (field (name MANUFACTURER) "ESPRESSIF SYSTEMS")
        (field (name PARTREV) 1.1)
        (field (name STANDARD) "Manufacturer Recommendations"))
      (libsource (lib kicad-appcent-rescue) (part "ESP32-WROVER-B_(16MB)-ESP32-WROVER-B__16MB_") (description ""))
      (sheetpath (names /) (tstamps /))
      (tstamp 609478EF))
    (comp (ref U4)
      (value BMP280)
      (footprint others:BMP280)
      (fields
        (field (name MANUFACTURER) Bosch)
        (field (name MP) BMP280)
        (field (name PART_REV) 1.19)
        (field (name STANDARD) "MANUFACTURER RECOMMENDATIONS"))
      (libsource (lib kicad-appcent-rescue) (part BMP280-BMP280) (description ""))
      (sheetpath (names /) (tstamps /))
      (tstamp 6094BF9F))
    (comp (ref J4)
      (value FFC2B28-24-G)
      (footprint others:FFC2B28-24-G)
      (fields
        (field (name MANUFACTURER) GCT)
        (field (name MAXIMUM_PACKAGE_HEIGHT) 1.75mm)
        (field (name PARTREV) A)
        (field (name STANDARD) "Manufacturer Recommendations"))
      (libsource (lib kicad-appcent-rescue) (part FFC2B28-24-G-FFC2B28-24-G) (description ""))
      (sheetpath (names /) (tstamps /))
      (tstamp 6094CC57))
    (comp (ref U9)
      (value PCF8574RGTR)
      (footprint others:PCF8574RGTR)
      (fields
        (field (name MANUFACTURER) "Texas Instruments")
        (field (name MAXIMUM_PACKAGE_HIEGHT) 1mm)
        (field (name PARTREV) J)
        (field (name STANDARD) "IPC 7351B"))
      (libsource (lib kicad-appcent-rescue) (part PCF8574RGTR-PCF8574RGTR) (description ""))
      (sheetpath (names /) (tstamps /))
      (tstamp 6094EDA2))
    (comp (ref U8)
      (value E22-900M22S)
      (footprint others:E22-900M22S)
      (libsource (lib kicad-appcent-rescue) (part E22-900M22S-E22-900M22S) (description ""))
      (sheetpath (names /) (tstamps /))
      (tstamp 6095093F))
    (comp (ref Q4)
      (value NDS0610)
      (footprint others:NDS0610)
      (libsource (lib kicad-appcent-rescue) (part NDS0610-NDS0610) (description ""))
      (sheetpath (names /) (tstamps /))
      (tstamp 6095D36F))
    (comp (ref SW1)
      (value 147873-1)
      (footprint others:PTS820_J15)
      (fields
        (field (name Comment) 147873-1))
      (libsource (lib kicad-appcent-rescue) (part 147873-1-147873-1) (description ""))
      (sheetpath (names /) (tstamps /))
      (tstamp 60AB3682))
    (comp (ref SW2)
      (value 147873-1)
      (footprint others:PTS820_J15)
      (fields
        (field (name Comment) 147873-1))
      (libsource (lib kicad-appcent-rescue) (part 147873-1-147873-1) (description ""))
      (sheetpath (names /) (tstamps /))
      (tstamp 60AB40B9))
    (comp (ref U3)
      (value MAX-M8Q)
      (footprint RF_GPS:ublox_MAX)
      (datasheet https://www.u-blox.com/sites/default/files/MAX-M8-FW3_DataSheet_%28UBX-15031506%29.pdf)
      (libsource (lib RF_GPS) (part MAX-M8Q) (description "GNSS Module MAX M8, VCC 2.7V to 3.6V"))
      (sheetpath (names /) (tstamps /))
      (tstamp 60B1B27D))
    (comp (ref Q3)
      (value NDS0610)
      (footprint others:NDS0610)
      (libsource (lib kicad-appcent-rescue) (part NDS0610-NDS0610) (description ""))
      (sheetpath (names /) (tstamps /))
      (tstamp 60B2103E))
    (comp (ref L3)
      (value 27nH)
      (footprint others:L_0805_2012Metric)
      (libsource (lib kicad-appcent-rescue) (part LQW2BAN27NG00L-LQW2BAN27NG00L) (description ""))
      (sheetpath (names /) (tstamps /))
      (tstamp 60BD6E00))
    (comp (ref U6)
      (value MCP1700T-2802E_TT)
      (footprint others:MCP1700T-2802E_TT)
      (fields
        (field (name MPN) MCP1700T-2802E/TT)
        (field (name OC_FARNELL) 1296591)
        (field (name OC_NEWARK) 84R5175)
        (field (name PACKAGE) SOT23-3)
        (field (name SUPPLIER) Microchip))
      (libsource (lib kicad-appcent-rescue) (part MCP1700T-2802E_TT-MCP1700T-2802E_TT) (description ""))
      (sheetpath (names /) (tstamps /))
      (tstamp 60C145CD))
    (comp (ref U7)
      (value MCP1700T-2802E_TT)
      (footprint others:MCP1700T-2802E_TT)
      (fields
        (field (name MPN) MCP1700T-2802E/TT)
        (field (name OC_FARNELL) 1296591)
        (field (name OC_NEWARK) 84R5175)
        (field (name PACKAGE) SOT23-3)
        (field (name SUPPLIER) Microchip))
      (libsource (lib kicad-appcent-rescue) (part MCP1700T-2802E_TT-MCP1700T-2802E_TT) (description ""))
      (sheetpath (names /) (tstamps /))
      (tstamp 60C1BC7E))
    (comp (ref U2)
      (value TPS63070RNMT)
      (footprint others:TPS63070RNMT)
      (libsource (lib kicad-appcent-rescue) (part TPS63070RNMT-TPS63070RNMT) (description ""))
      (sheetpath (names /) (tstamps /))
      (tstamp 60D0A9CC))
    (comp (ref J1)
      (value Conn_01x02_Male)
      (footprint Connectors:1X02_LOCK_LONGPADS)
      (datasheet ~)
      (libsource (lib Connector) (part Conn_01x02_Male) (description "Generic connector, single row, 01x02, script generated (kicad-library-utils/schlib/autogen/connector/)"))
      (sheetpath (names /) (tstamps /))
      (tstamp 60D0D206))
    (comp (ref J2)
      (value Conn_01x02_Male)
      (footprint Connectors:1X02_LOCK_LONGPADS)
      (datasheet ~)
      (libsource (lib Connector) (part Conn_01x02_Male) (description "Generic connector, single row, 01x02, script generated (kicad-library-utils/schlib/autogen/connector/)"))
      (sheetpath (names /) (tstamps /))
      (tstamp 60D0E127))
    (comp (ref L1)
      (value XFL4020-102MEC)
      (footprint others:XFL4020-102MEC)
      (fields
        (field (name DESCRIPTION) "Power inductor, shielded, 20% tol, SMT, RoHS, halogen free")
        (field (name MANUFACTURER) Coilcraft)
        (field (name MAXIMUM_PACKAGE_HEIGHT) 2.1mm)
        (field (name PARTREV) 11/02/18)
        (field (name STANDARD) "Manufacturer Recommendations"))
      (libsource (lib kicad-appcent-rescue) (part XFL4020-102MEC-XFL4020-102MEC) (description ""))
      (sheetpath (names /) (tstamps /))
      (tstamp 60953B16))
    (comp (ref J5)
      (value SMA-J-P-H-ST-EM1)
      (footprint others:SMA-J-P-H-ST-EM1)
      (fields
        (field (name MANUFACTURER) Samtec)
        (field (name MAXIMUM_PACKAGE_HEIGHT) 3.675mm)
        (field (name PARTREV) G)
        (field (name STANDARD) "Manufacturer Recommendations"))
      (libsource (lib kicad-appcent-rescue) (part SMA-J-P-H-ST-EM1-SMA-J-P-H-ST-EM1) (description ""))
      (sheetpath (names /) (tstamps /))
      (tstamp 609C26CD))
    (comp (ref J3)
      (value 10118194-0001LF)
      (footprint digikey-footprints:USB_Micro_B_Female_10118194-0001LF)
      (datasheet http://www.amphenol-icc.com/media/wysiwyg/files/drawing/10118194.pdf)
      (fields
        (field (name Category) "Connectors, Interconnects")
        (field (name DK_Datasheet_Link) http://www.amphenol-icc.com/media/wysiwyg/files/drawing/10118194.pdf)
        (field (name DK_Detail_Page) /product-detail/en/amphenol-icc-fci/10118194-0001LF/609-4618-1-ND/2785382)
        (field (name Description) "CONN RCPT USB2.0 MICRO B SMD R/A")
        (field (name Digi-Key_PN) 609-4618-1-ND)
        (field (name Family) "USB, DVI, HDMI Connectors")
        (field (name MPN) 10118194-0001LF)
        (field (name Manufacturer) "Amphenol ICC (FCI)")
        (field (name Status) Active))
      (libsource (lib dk_USB-DVI-HDMI-Connectors) (part 10118194-0001LF) (description "CONN RCPT USB2.0 MICRO B SMD R/A"))
      (sheetpath (names /) (tstamps /))
      (tstamp 60973F0C))
    (comp (ref R1)
      (value 560K)
      (footprint Resistor_SMD:R_0805_2012Metric)
      (datasheet ~)
      (libsource (lib Device) (part R_Small_US) (description "Resistor, small US symbol"))
      (sheetpath (names /) (tstamps /))
      (tstamp 6099E1A8))
    (comp (ref R2)
      (value 100K)
      (footprint Resistor_SMD:R_0805_2012Metric)
      (datasheet ~)
      (libsource (lib Device) (part R_Small_US) (description "Resistor, small US symbol"))
      (sheetpath (names /) (tstamps /))
      (tstamp 6099EE72))
    (comp (ref R4)
      (value 10K)
      (footprint Resistor_SMD:R_0805_2012Metric)
      (datasheet ~)
      (libsource (lib Device) (part R_Small_US) (description "Resistor, small US symbol"))
      (sheetpath (names /) (tstamps /))
      (tstamp 60A1DFFC))
    (comp (ref R9)
      (value 10K)
      (footprint Resistor_SMD:R_0805_2012Metric)
      (datasheet ~)
      (libsource (lib Device) (part R_Small_US) (description "Resistor, small US symbol"))
      (sheetpath (names /) (tstamps /))
      (tstamp 60A603AE))
    (comp (ref R10)
      (value 470K)
      (footprint Resistor_SMD:R_0805_2012Metric)
      (datasheet ~)
      (libsource (lib Device) (part R_Small_US) (description "Resistor, small US symbol"))
      (sheetpath (names /) (tstamps /))
      (tstamp 60AA1D64))
    (comp (ref R11)
      (value 150K)
      (footprint Resistor_SMD:R_0805_2012Metric)
      (datasheet ~)
      (libsource (lib Device) (part R_Small_US) (description "Resistor, small US symbol"))
      (sheetpath (names /) (tstamps /))
      (tstamp 60AA2211))
    (comp (ref C5)
      (value 22uF)
      (footprint Capacitor_SMD:C_0805_2012Metric)
      (datasheet ~)
      (libsource (lib Device) (part C_Small) (description "Unpolarized capacitor, small symbol"))
      (sheetpath (names /) (tstamps /))
      (tstamp 60B36195))
    (comp (ref C6)
      (value 22uF)
      (footprint Capacitor_SMD:C_0805_2012Metric)
      (datasheet ~)
      (libsource (lib Device) (part C_Small) (description "Unpolarized capacitor, small symbol"))
      (sheetpath (names /) (tstamps /))
      (tstamp 60B366DD))
    (comp (ref C7)
      (value 22uF)
      (footprint Capacitor_SMD:C_0805_2012Metric)
      (datasheet ~)
      (libsource (lib Device) (part C_Small) (description "Unpolarized capacitor, small symbol"))
      (sheetpath (names /) (tstamps /))
      (tstamp 60B36A0C))
    (comp (ref C3)
      (value 10uF)
      (footprint Capacitor_SMD:C_0805_2012Metric)
      (datasheet ~)
      (libsource (lib Device) (part C_Small) (description "Unpolarized capacitor, small symbol"))
      (sheetpath (names /) (tstamps /))
      (tstamp 60BF9B82))
    (comp (ref C1)
      (value 10uF)
      (footprint Capacitor_SMD:C_0805_2012Metric)
      (datasheet ~)
      (libsource (lib Device) (part C_Small) (description "Unpolarized capacitor, small symbol"))
      (sheetpath (names /) (tstamps /))
      (tstamp 60C3EB78))
    (comp (ref C2)
      (value 22uF)
      (footprint Capacitor_SMD:C_0805_2012Metric)
      (datasheet ~)
      (libsource (lib Device) (part C_Small) (description "Unpolarized capacitor, small symbol"))
      (sheetpath (names /) (tstamps /))
      (tstamp 60C3F134))
    (comp (ref C9)
      (value 0.1uF)
      (footprint Capacitor_SMD:C_0805_2012Metric)
      (datasheet ~)
      (libsource (lib Device) (part C_Small) (description "Unpolarized capacitor, small symbol"))
      (sheetpath (names /) (tstamps /))
      (tstamp 60CC9902))
    (comp (ref C11)
      (value 0.1uF)
      (footprint Capacitor_SMD:C_0805_2012Metric)
      (datasheet ~)
      (libsource (lib Device) (part C_Small) (description "Unpolarized capacitor, small symbol"))
      (sheetpath (names /) (tstamps /))
      (tstamp 60CEFD28))
    (comp (ref C12)
      (value 15pF)
      (footprint Capacitor_SMD:C_0805_2012Metric)
      (datasheet ~)
      (libsource (lib Device) (part C_Small) (description "Unpolarized capacitor, small symbol"))
      (sheetpath (names /) (tstamps /))
      (tstamp 60D591F5))
    (comp (ref C13)
      (value 0.1uF)
      (footprint Capacitor_SMD:C_0805_2012Metric)
      (datasheet ~)
      (libsource (lib Device) (part C_Small) (description "Unpolarized capacitor, small symbol"))
      (sheetpath (names /) (tstamps /))
      (tstamp 60D7BB6C))
    (comp (ref R14)
      (value 10K)
      (footprint Resistor_SMD:R_0805_2012Metric)
      (datasheet ~)
      (libsource (lib Device) (part R_Small_US) (description "Resistor, small US symbol"))
      (sheetpath (names /) (tstamps /))
      (tstamp 60E079C5))
    (comp (ref R15)
      (value 10K)
      (footprint Resistor_SMD:R_0805_2012Metric)
      (datasheet ~)
      (libsource (lib Device) (part R_Small_US) (description "Resistor, small US symbol"))
      (sheetpath (names /) (tstamps /))
      (tstamp 60E4DF17))
    (comp (ref C18)
      (value 1uF)
      (footprint Capacitor_SMD:C_0805_2012Metric)
      (datasheet ~)
      (libsource (lib Device) (part C_Small) (description "Unpolarized capacitor, small symbol"))
      (sheetpath (names /) (tstamps /))
      (tstamp 60F0AA44))
    (comp (ref C17)
      (value 10uF)
      (footprint Capacitor_SMD:C_0805_2012Metric)
      (datasheet ~)
      (libsource (lib Device) (part C_Small) (description "Unpolarized capacitor, small symbol"))
      (sheetpath (names /) (tstamps /))
      (tstamp 60F4EFE1))
    (comp (ref C15)
      (value 0.1uF)
      (footprint Capacitor_SMD:C_0805_2012Metric)
      (datasheet ~)
      (libsource (lib Device) (part C_Small) (description "Unpolarized capacitor, small symbol"))
      (sheetpath (names /) (tstamps /))
      (tstamp 60F4FB9B))
    (comp (ref C14)
      (value 0.1uF)
      (footprint Capacitor_SMD:C_0805_2012Metric)
      (datasheet ~)
      (libsource (lib Device) (part C_Small) (description "Unpolarized capacitor, small symbol"))
      (sheetpath (names /) (tstamps /))
      (tstamp 60F4FF24))
    (comp (ref C16)
      (value 10uF)
      (footprint Capacitor_SMD:C_0805_2012Metric)
      (datasheet ~)
      (libsource (lib Device) (part C_Small) (description "Unpolarized capacitor, small symbol"))
      (sheetpath (names /) (tstamps /))
      (tstamp 60F506C7))
    (comp (ref R13)
      (value 10K)
      (footprint Resistor_SMD:R_0805_2012Metric)
      (datasheet ~)
      (libsource (lib Device) (part R_Small_US) (description "Resistor, small US symbol"))
      (sheetpath (names /) (tstamps /))
      (tstamp 610239A2))
    (comp (ref C10)
      (value 47pF)
      (footprint Capacitor_SMD:C_0805_2012Metric)
      (datasheet ~)
      (libsource (lib Device) (part C_Small) (description "Unpolarized capacitor, small symbol"))
      (sheetpath (names /) (tstamps /))
      (tstamp 610AAFD4))
    (comp (ref C4)
      (value 0.1uF)
      (footprint Capacitor_SMD:C_0805_2012Metric)
      (datasheet ~)
      (libsource (lib Device) (part C_Small) (description "Unpolarized capacitor, small symbol"))
      (sheetpath (names /) (tstamps /))
      (tstamp 610F0232))
    (comp (ref R8)
      (value 22.1K)
      (footprint Resistor_SMD:R_0805_2012Metric)
      (datasheet ~)
      (libsource (lib Device) (part R_Small_US) (description "Resistor, small US symbol"))
      (sheetpath (names /) (tstamps /))
      (tstamp 610F06AD))
    (comp (ref R7)
      (value 47.5K)
      (footprint Resistor_SMD:R_0805_2012Metric)
      (datasheet ~)
      (libsource (lib Device) (part R_Small_US) (description "Resistor, small US symbol"))
      (sheetpath (names /) (tstamps /))
      (tstamp 6118C6C1))
    (comp (ref R3)
      (value 2K)
      (footprint Resistor_SMD:R_0805_2012Metric)
      (datasheet ~)
      (libsource (lib Device) (part R_Small_US) (description "Resistor, small US symbol"))
      (sheetpath (names /) (tstamps /))
      (tstamp 611E7D32))
    (comp (ref R5)
      (value 10K)
      (footprint Resistor_SMD:R_0805_2012Metric)
      (datasheet ~)
      (libsource (lib Device) (part R_Small_US) (description "Resistor, small US symbol"))
      (sheetpath (names /) (tstamps /))
      (tstamp 61274958))
    (comp (ref R6)
      (value 10K)
      (footprint Resistor_SMD:R_0805_2012Metric)
      (datasheet ~)
      (libsource (lib Device) (part R_Small_US) (description "Resistor, small US symbol"))
      (sheetpath (names /) (tstamps /))
      (tstamp 61274CE1))
    (comp (ref AE1)
      (value Antenna)
      (footprint ANT_GPS_RAINSUN1003:ANT_GPS_RAINSUN1003)
      (datasheet ~)
      (libsource (lib Device) (part Antenna) (description Antenna))
      (sheetpath (names /) (tstamps /))
      (tstamp 6130413D))
    (comp (ref R12)
      (value 10K)
      (footprint Resistor_SMD:R_0805_2012Metric)
      (datasheet ~)
      (libsource (lib Device) (part R_Small_US) (description "Resistor, small US symbol"))
      (sheetpath (names /) (tstamps /))
      (tstamp 614091D7))
    (comp (ref R16)
      (value 10K)
      (footprint Resistor_SMD:R_0805_2012Metric)
      (datasheet ~)
      (libsource (lib Device) (part R_Small_US) (description "Resistor, small US symbol"))
      (sheetpath (names /) (tstamps /))
      (tstamp 61409FDE))
    (comp (ref R17)
      (value 10K)
      (footprint Resistor_SMD:R_0805_2012Metric)
      (datasheet ~)
      (libsource (lib Device) (part R_Small_US) (description "Resistor, small US symbol"))
      (sheetpath (names /) (tstamps /))
      (tstamp 6140A509))
    (comp (ref C8)
      (value 0.1uF)
      (footprint Capacitor_SMD:C_0805_2012Metric)
      (datasheet ~)
      (libsource (lib Device) (part C_Small) (description "Unpolarized capacitor, small symbol"))
      (sheetpath (names /) (tstamps /))
      (tstamp 614A09B8))
    (comp (ref C19)
      (value 0.1uF)
      (footprint Capacitor_SMD:C_0805_2012Metric)
      (datasheet ~)
      (libsource (lib Device) (part C_Small) (description "Unpolarized capacitor, small symbol"))
      (sheetpath (names /) (tstamps /))
      (tstamp 615DB661))
    (comp (ref C20)
      (value 0.1uF)
      (footprint Capacitor_SMD:C_0805_2012Metric)
      (datasheet ~)
      (libsource (lib Device) (part C_Small) (description "Unpolarized capacitor, small symbol"))
      (sheetpath (names /) (tstamps /))
      (tstamp 6166200C))
    (comp (ref D3)
      (value esd)
      (footprint Diode_SMD:D_SOD-323)
      (datasheet https://assets.nexperia.com/documents/data-sheet/PESD24VL1BA.pdf)
      (fields
        (field (name Description) "PESD24VL1BA - Low capacitance bidirectional ESD protection diode in SOD323")
        (field (name Height) 1.1)
        (field (name Manufacturer_Name) Nexperia)
        (field (name Manufacturer_Part_Number) PESD24VL1BAF)
        (field (name "Mouser Part Number") 771-PESD24VL1BAF)
        (field (name "Mouser Price/Stock") https://www.mouser.co.uk/ProductDetail/Nexperia/PESD24VL1BAF/?qs=45Avz0nZxhvsuBpEB89IpQ%3D%3D))
      (libsource (lib kicad-appcent-rescue) (part PESD24VL1BAF-esddiode) (description ""))
      (sheetpath (names /) (tstamps /))
      (tstamp 619A5231))
    (comp (ref D4)
      (value esd)
      (footprint Diode_SMD:D_SOD-323)
      (datasheet https://assets.nexperia.com/documents/data-sheet/PESD24VL1BA.pdf)
      (fields
        (field (name Description) "PESD24VL1BA - Low capacitance bidirectional ESD protection diode in SOD323")
        (field (name Height) 1.1)
        (field (name Manufacturer_Name) Nexperia)
        (field (name Manufacturer_Part_Number) PESD24VL1BAF)
        (field (name "Mouser Part Number") 771-PESD24VL1BAF)
        (field (name "Mouser Price/Stock") https://www.mouser.co.uk/ProductDetail/Nexperia/PESD24VL1BAF/?qs=45Avz0nZxhvsuBpEB89IpQ%3D%3D))
      (libsource (lib kicad-appcent-rescue) (part PESD24VL1BAF-esddiode) (description ""))
      (sheetpath (names /) (tstamps /))
      (tstamp 619A97EC))
    (comp (ref D5)
      (value esd)
      (footprint Diode_SMD:D_SOD-323)
      (datasheet https://assets.nexperia.com/documents/data-sheet/PESD24VL1BA.pdf)
      (fields
        (field (name Description) "PESD24VL1BA - Low capacitance bidirectional ESD protection diode in SOD323")
        (field (name Height) 1.1)
        (field (name Manufacturer_Name) Nexperia)
        (field (name Manufacturer_Part_Number) PESD24VL1BAF)
        (field (name "Mouser Part Number") 771-PESD24VL1BAF)
        (field (name "Mouser Price/Stock") https://www.mouser.co.uk/ProductDetail/Nexperia/PESD24VL1BAF/?qs=45Avz0nZxhvsuBpEB89IpQ%3D%3D))
      (libsource (lib kicad-appcent-rescue) (part PESD24VL1BAF-esddiode) (description ""))
      (sheetpath (names /) (tstamps /))
      (tstamp 619A9F84))
    (comp (ref C21)
      (value 100nf)
      (footprint Capacitor_SMD:C_0805_2012Metric)
      (datasheet ~)
      (libsource (lib Device) (part C_Small) (description "Unpolarized capacitor, small symbol"))
      (sheetpath (names /) (tstamps /))
      (tstamp 60CA88A5))
    (comp (ref D2)
      (value LED)
      (footprint LED_SMD:LED_0805_2012Metric)
      (datasheet ~)
      (libsource (lib Device) (part LED) (description "Light emitting diode"))
      (sheetpath (names /) (tstamps /))
      (tstamp 60A76359)))
  (libparts
    (libpart (lib Connector) (part Conn_01x02_Male)
      (description "Generic connector, single row, 01x02, script generated (kicad-library-utils/schlib/autogen/connector/)")
      (docs ~)
      (footprints
        (fp Connector*:*_1x??_*))
      (fields
        (field (name Reference) J)
        (field (name Value) Conn_01x02_Male))
      (pins
        (pin (num 1) (name Pin_1) (type passive))
        (pin (num 2) (name Pin_2) (type passive))))
    (libpart (lib Device) (part Antenna)
      (description Antenna)
      (docs ~)
      (fields
        (field (name Reference) AE)
        (field (name Value) Antenna))
      (pins
        (pin (num 1) (name A) (type input))))
    (libpart (lib Device) (part C_Small)
      (description "Unpolarized capacitor, small symbol")
      (docs ~)
      (footprints
        (fp C_*))
      (fields
        (field (name Reference) C)
        (field (name Value) C_Small))
      (pins
        (pin (num 1) (name ~) (type passive))
        (pin (num 2) (name ~) (type passive))))
    (libpart (lib Device) (part LED)
      (description "Light emitting diode")
      (docs ~)
      (footprints
        (fp LED*)
        (fp LED_SMD:*)
        (fp LED_THT:*))
      (fields
        (field (name Reference) D)
        (field (name Value) LED))
      (pins
        (pin (num 1) (name K) (type passive))
        (pin (num 2) (name A) (type passive))))
    (libpart (lib Device) (part R_Small_US)
      (description "Resistor, small US symbol")
      (docs ~)
      (footprints
        (fp R_*))
      (fields
        (field (name Reference) R)
        (field (name Value) R_Small_US))
      (pins
        (pin (num 1) (name ~) (type passive))
        (pin (num 2) (name ~) (type passive))))
    (libpart (lib RF_GPS) (part MAX-8C)
      (aliases
        (alias MAX-8Q)
        (alias MAX-M8C)
        (alias MAX-M8Q))
      (description "GNSS Module MAX M8, VCC 1.65V to 3.6V")
      (docs https://www.u-blox.com/sites/default/files/MAX-8_DataSheet_%28UBX-16000093%29.pdf)
      (footprints
        (fp ublox*MAX*))
      (fields
        (field (name Reference) U)
        (field (name Value) MAX-8C)
        (field (name Footprint) RF_GPS:ublox_MAX))
      (pins
        (pin (num 1) (name GND) (type power_in))
        (pin (num 2) (name TXD) (type output))
        (pin (num 3) (name RXD) (type input))
        (pin (num 4) (name TIMEPULSE) (type output))
        (pin (num 5) (name EXTINT) (type input))
        (pin (num 6) (name V_BCKP) (type power_in))
        (pin (num 7) (name VCC_IO) (type power_in))
        (pin (num 8) (name VCC) (type power_in))
        (pin (num 9) (name ~RESET) (type input))
        (pin (num 10) (name GND) (type passive))
        (pin (num 11) (name RF_IN) (type input))
        (pin (num 12) (name GND) (type passive))
        (pin (num 13) (name LNA_EN) (type output))
        (pin (num 14) (name VCC_RF) (type power_out))
        (pin (num 15) (name Reserved) (type NotConnected))
        (pin (num 16) (name SDA) (type BiDi))
        (pin (num 17) (name SCL) (type input))
        (pin (num 18) (name ~SAFEBOOT) (type input))))
    (libpart (lib dk_USB-DVI-HDMI-Connectors) (part 10118194-0001LF)
      (description "CONN RCPT USB2.0 MICRO B SMD R/A")
      (docs http://www.amphenol-icc.com/media/wysiwyg/files/drawing/10118194.pdf)
      (fields
        (field (name Reference) J)
        (field (name Value) 10118194-0001LF)
        (field (name Footprint) digikey-footprints:USB_Micro_B_Female_10118194-0001LF)
        (field (name Datasheet) http://www.amphenol-icc.com/media/wysiwyg/files/drawing/10118194.pdf)
        (field (name Digi-Key_PN) 609-4618-1-ND)
        (field (name MPN) 10118194-0001LF)
        (field (name Category) "Connectors, Interconnects")
        (field (name Family) "USB, DVI, HDMI Connectors")
        (field (name DK_Datasheet_Link) http://www.amphenol-icc.com/media/wysiwyg/files/drawing/10118194.pdf)
        (field (name DK_Detail_Page) /product-detail/en/amphenol-icc-fci/10118194-0001LF/609-4618-1-ND/2785382)
        (field (name Description) "CONN RCPT USB2.0 MICRO B SMD R/A")
        (field (name Manufacturer) "Amphenol ICC (FCI)")
        (field (name Status) Active))
      (pins
        (pin (num 1) (name ~) (type passive))
        (pin (num 2) (name ~) (type passive))
        (pin (num 3) (name ~) (type passive))
        (pin (num 4) (name ~) (type passive))
        (pin (num 5) (name ~) (type passive))
        (pin (num SH) (name ~) (type passive))))
    (libpart (lib kicad-appcent-rescue) (part 147873-1-147873-1)
      (fields
        (field (name Reference) SW)
        (field (name Value) 147873-1-147873-1)
        (field (name Footprint) SW_147873-1)
        (field (name Comment) 147873-1))
      (pins
        (pin (num 1) (name ~) (type passive))
        (pin (num 2) (name ~) (type passive))))
    (libpart (lib kicad-appcent-rescue) (part BMP280-BMP280)
      (fields
        (field (name Reference) U)
        (field (name Value) BMP280-BMP280)
        (field (name Footprint) XDCR_BMP280)
        (field (name PART_REV) 1.19)
        (field (name MANUFACTURER) Bosch)
        (field (name MP) BMP280)
        (field (name STANDARD) "MANUFACTURER RECOMMENDATIONS"))
      (pins
        (pin (num 1) (name GND) (type power_in))
        (pin (num 2) (name CSB) (type input))
        (pin (num 3) (name SDI) (type BiDi))
        (pin (num 4) (name SCK) (type input))
        (pin (num 5) (name SDO) (type BiDi))
        (pin (num 6) (name VDDIO) (type power_in))
        (pin (num 7) (name GND) (type power_in))
        (pin (num 8) (name VDD) (type power_in))))
    (libpart (lib kicad-appcent-rescue) (part CP2102N-A01-GQFN28-CP2102N-A01-GQFN28)
      (fields
        (field (name Reference) U)
        (field (name Value) CP2102N-A01-GQFN28-CP2102N-A01-GQFN28)
        (field (name Footprint) QFN50P500X500X80-29N)
        (field (name STANDARD) "IPC 7351B")
        (field (name PARTREV) 1.0)
        (field (name MANUFACTURER) "SILICON LABS")
        (field (name MAXIMUM_PACKAGE_HEIGHT) 0.8mm))
      (pins
        (pin (num 1) (name DCD) (type input))
        (pin (num 2) (name RI/CLK) (type BiDi))
        (pin (num 3) (name GND) (type power_in))
        (pin (num 4) (name D+) (type BiDi))
        (pin (num 5) (name D-) (type BiDi))
        (pin (num 6) (name VDD) (type power_in))
        (pin (num 7) (name VREGIN) (type power_in))
        (pin (num 8) (name VBUS) (type power_in))
        (pin (num 9) (name ~RST) (type input))
        (pin (num 10) (name NC) (type NotConnected))
        (pin (num 11) (name ~SUSPENDB) (type output))
        (pin (num 12) (name SUSPEND) (type output))
        (pin (num 13) (name CHREN) (type output))
        (pin (num 14) (name CHR1) (type output))
        (pin (num 15) (name CHR0) (type output))
        (pin (num 16) (name GPIO.3/WAKEUP) (type BiDi))
        (pin (num 17) (name GPIO.2/RS485) (type BiDi))
        (pin (num 18) (name GPIO.1/RXT) (type BiDi))
        (pin (num 19) (name GPIO.0/TXT) (type BiDi))
        (pin (num 20) (name GPIO.6) (type BiDi))
        (pin (num 21) (name GPIO.5) (type BiDi))
        (pin (num 22) (name GPIO.4) (type BiDi))
        (pin (num 23) (name CTS) (type input))
        (pin (num 24) (name RTS) (type output))
        (pin (num 25) (name RXD) (type input))
        (pin (num 26) (name TXD) (type output))
        (pin (num 27) (name DSR) (type input))
        (pin (num 28) (name DTR) (type output))
        (pin (num 29) (name GND) (type power_in))))
    (libpart (lib kicad-appcent-rescue) (part E22-900M22S-E22-900M22S)
      (fields
        (field (name Reference) U)
        (field (name Value) E22-900M22S-E22-900M22S)
        (field (name Footprint) E22-900M22S))
      (pins
        (pin (num ANT) (name ANT) (type BiDi))
        (pin (num P$1) (name GND1) (type BiDi))
        (pin (num P$2) (name GND1) (type BiDi))
        (pin (num P$3) (name GND1) (type BiDi))
        (pin (num P$4) (name GND1) (type BiDi))
        (pin (num P$5) (name GND1) (type BiDi))
        (pin (num P$6) (name RXEN) (type BiDi))
        (pin (num P$7) (name TXEN) (type BiDi))
        (pin (num P$8) (name DIO2) (type BiDi))
        (pin (num P$9) (name VCC) (type BiDi))
        (pin (num P$10) (name GND1) (type BiDi))
        (pin (num P$11) (name GND1) (type BiDi))
        (pin (num P$12) (name GND1) (type BiDi))
        (pin (num P$13) (name DIO1) (type BiDi))
        (pin (num P$14) (name BUSY) (type BiDi))
        (pin (num P$15) (name NRST) (type BiDi))
        (pin (num P$16) (name MISO) (type BiDi))
        (pin (num P$17) (name MOSI) (type BiDi))
        (pin (num P$18) (name SCK) (type BiDi))
        (pin (num P$19) (name NSS) (type BiDi))
        (pin (num P$20) (name GND1) (type BiDi))
        (pin (num P$22) (name GND1) (type BiDi))))
    (libpart (lib kicad-appcent-rescue) (part "ESP32-WROVER-B_(16MB)-ESP32-WROVER-B__16MB_")
      (fields
        (field (name Reference) U)
        (field (name Value) "ESP32-WROVER-B_(16MB)-ESP32-WROVER-B__16MB_")
        (field (name Footprint) "XCVR_ESP32-WROVER-B_(16MB)")
        (field (name PARTREV) 1.1)
        (field (name MANUFACTURER) "ESPRESSIF SYSTEMS")
        (field (name STANDARD) "Manufacturer Recommendations"))
      (pins
        (pin (num 1) (name GND) (type power_in))
        (pin (num 2) (name 3V3) (type power_in))
        (pin (num 3) (name EN) (type input))
        (pin (num 4) (name SENSOR_VP/GPIO36/ADC1_CH0/RTC_GPIO0) (type BiDi))
        (pin (num 5) (name SENSOR_VN/GPIO39/ADC1_CH3/RTC_GPIO3) (type BiDi))
        (pin (num 6) (name IO34/GPIO34/ADC1_CH6/RTC_GPIO4) (type BiDi))
        (pin (num 7) (name IO35/GPIO35/ADC1_CH7/RTC_GPIO5) (type BiDi))
        (pin (num 8) (name IO32/GPIO32/XTAL_32K_P/ADC1_CH4/TOUCH9/RTC_GPIO9) (type BiDi))
        (pin (num 9) (name IO33/GPIO33/XTAL_32K_N/ADC1_CH5/TOUCH8/RTC_GPIO8) (type BiDi))
        (pin (num 10) (name IO25/GPIO25/DAC_1/ADC2_CH8/RTC_GPIO6/EMAC_RXD0) (type BiDi))
        (pin (num 11) (name IO26/DAC_2/ADC2_CH9/RTC_GPIO7/EMAC_RXD1) (type BiDi))
        (pin (num 12) (name IO27/GPIO27/ADC2_CH7/TOUCH7/RTC_GPIO17/EMAC_RX_DV) (type BiDi))
        (pin (num 13) (name IO14/GPIO14/ADC2_CH6/TOUCH6/RTC_GPIO16/MTMS/HSPICLK/HS2_CLK/SD_CLK/EMAC_TXD2) (type BiDi))
        (pin (num 14) (name IO12/GPIO12/ADC2_CH5/TOUCH5/RTC_GPIO15/HSPIQ/HS2_DATA2/SD_DATA2/EMAC_TXD3) (type BiDi))
        (pin (num 15) (name GND) (type power_in))
        (pin (num 16) (name IO13/GPIO13/ADC2_CH4/TOUCH4/RTC_GPIO14/MTCK/HSPID/HS2_DATA3/SD_DATA3/EMAC_RX_ER) (type BiDi))
        (pin (num 17) (name SHD/SD2*/GPIO9/SD_DATA2/SPIHD/HS1_DATA2/U1RXD) (type BiDi))
        (pin (num 18) (name SWP/SD3*/GPIO10/SD_DATA3/SPIWP/HS1_DATA3/U1TXD) (type BiDi))
        (pin (num 19) (name SCS/CMD*/GPIO11/SD_CMD/SPICS0/HS1_CMD/U1RTS) (type BiDi))
        (pin (num 20) (name SCK/CLK*/GPIO6/SD_CLK/SPICLK/HS1_CLK/U1CTS) (type BiDi))
        (pin (num 21) (name SDO/SD0*/GPIO7/SD_DATA0/SPIQ/HS1_DATA0/U2RTS) (type BiDi))
        (pin (num 22) (name SDI/SD1*/GPIO8/SD_DATA1/SPID/HS1_DATA1/U2CTS) (type BiDi))
        (pin (num 23) (name IO15/GPIO15/ADC2_CH3/TOUCH3/MTDO/HSPICS0/RTC_GPIO13/HS2_CMD/SD_CMD/EMAC_RXD3) (type BiDi))
        (pin (num 24) (name IO2/GPIO2/ADC2_CH2/TOUCH2/RTC_GPIO12/HSPIWP/HS2_DATA0/SD_DATA0) (type BiDi))
        (pin (num 25) (name IO0/GPIO0/ADC2_CH1/TOUCH1/RTC_GPIO11/CLK_OUT1/EMAC_TX_CLK) (type BiDi))
        (pin (num 26) (name IO4/GPIO4/ADC2_CH0/TOUCH0/RTC_GPIO10/HSPIHD/HS2_DATA1/SD_DATA1/EMAC_TX_ER) (type BiDi))
        (pin (num 29) (name IO5/GPIO5/VSPICS0/HS1_DATA6/EMAC_RX_CLK) (type BiDi))
        (pin (num 30) (name IO18/GPIO18/VSPICLK/HS1_DATA7) (type BiDi))
        (pin (num 31) (name IO19/GPIO19/VSPIQ/U0CTS/EMAC_TXD0) (type BiDi))
        (pin (num 33) (name IO21/GPIO21/VSPIHD/EMAC_TX_EN) (type BiDi))
        (pin (num 34) (name RXD0/GPIO3/U0RXD/CLK_OUT2) (type BiDi))
        (pin (num 35) (name TXD0/GPIO1/U0TXD/CLK_OUT3/EMAC_RXD2) (type BiDi))
        (pin (num 36) (name IO22/GPIO22/VSPIWP/U0RTS/EMAC_TXD1) (type BiDi))
        (pin (num 37) (name IO23/GPIO23/VSPID/HS1_STROBE) (type BiDi))
        (pin (num 38) (name GND) (type power_in))
        (pin (num 39) (name EP) (type power_in))))
    (libpart (lib kicad-appcent-rescue) (part FFC2B28-24-G-FFC2B28-24-G)
      (fields
        (field (name Reference) J)
        (field (name Value) FFC2B28-24-G-FFC2B28-24-G)
        (field (name Footprint) GCT_FFC2B28-24-G)
        (field (name STANDARD) "Manufacturer Recommendations")
        (field (name PARTREV) A)
        (field (name MANUFACTURER) GCT)
        (field (name MAXIMUM_PACKAGE_HEIGHT) 1.75mm))
      (pins
        (pin (num 1) (name 1) (type passive))
        (pin (num 2) (name 2) (type passive))
        (pin (num 3) (name 3) (type passive))
        (pin (num 4) (name 4) (type passive))
        (pin (num 5) (name 5) (type passive))
        (pin (num 6) (name 6) (type passive))
        (pin (num 7) (name 7) (type passive))
        (pin (num 8) (name 8) (type passive))
        (pin (num 9) (name 9) (type passive))
        (pin (num 10) (name 10) (type passive))
        (pin (num 11) (name 11) (type passive))
        (pin (num 12) (name 12) (type passive))
        (pin (num 13) (name 13) (type passive))
        (pin (num 14) (name 14) (type passive))
        (pin (num 15) (name 15) (type passive))
        (pin (num 16) (name 16) (type passive))
        (pin (num 17) (name 17) (type passive))
        (pin (num 18) (name 18) (type passive))
        (pin (num 19) (name 19) (type passive))
        (pin (num 20) (name 20) (type passive))
        (pin (num 21) (name 21) (type passive))
        (pin (num 22) (name 22) (type passive))
        (pin (num 23) (name 23) (type passive))
        (pin (num 24) (name 24) (type passive))
        (pin (num S1) (name SHIELD) (type passive))
        (pin (num S2) (name SHIELD) (type passive))))
    (libpart (lib kicad-appcent-rescue) (part LQW2BAN27NG00L-LQW2BAN27NG00L)
      (fields
        (field (name Reference) L)
        (field (name Value) LQW2BAN27NG00L-LQW2BAN27NG00L)
        (field (name Footprint) INDC2015X152N))
      (pins
        (pin (num 1) (name ~) (type passive))
        (pin (num 2) (name ~) (type passive))))
    (libpart (lib kicad-appcent-rescue) (part MCP1700T-2802E_TT-MCP1700T-2802E_TT)
      (fields
        (field (name Reference) U)
        (field (name Value) MCP1700T-2802E_TT-MCP1700T-2802E_TT)
        (field (name Footprint) SOT95P237X112-3N)
        (field (name OC_FARNELL) 1296591)
        (field (name MPN) MCP1700T-2802E/TT)
        (field (name PACKAGE) SOT23-3)
        (field (name OC_NEWARK) 84R5175)
        (field (name SUPPLIER) Microchip))
      (pins
        (pin (num 1) (name GND) (type passive))
        (pin (num 2) (name VOUT) (type output))
        (pin (num 3) (name VIN) (type input))))
    (libpart (lib kicad-appcent-rescue) (part NDS0610-NDS0610)
      (fields
        (field (name Reference) Q)
        (field (name Value) NDS0610-NDS0610)
        (field (name Footprint) SOT23))
      (pins
        (pin (num 1) (name ~) (type passive))
        (pin (num 2) (name ~) (type passive))
        (pin (num 3) (name ~) (type passive))))
    (libpart (lib kicad-appcent-rescue) (part PCF8574RGTR-PCF8574RGTR)
      (fields
        (field (name Reference) U)
        (field (name Value) PCF8574RGTR-PCF8574RGTR)
        (field (name Footprint) QFN50P300X300X100-17N)
        (field (name MAXIMUM_PACKAGE_HIEGHT) 1mm)
        (field (name STANDARD) "IPC 7351B")
        (field (name PARTREV) J)
        (field (name MANUFACTURER) "Texas Instruments"))
      (pins
        (pin (num 1) (name VCC) (type power_in))
        (pin (num 2) (name A0) (type input))
        (pin (num 3) (name A1) (type input))
        (pin (num 4) (name A2) (type input))
        (pin (num 5) (name P0) (type BiDi))
        (pin (num 6) (name P1) (type BiDi))
        (pin (num 7) (name P2) (type BiDi))
        (pin (num 8) (name P3) (type BiDi))
        (pin (num 9) (name GND) (type power_in))
        (pin (num 10) (name P4) (type BiDi))
        (pin (num 11) (name P5) (type BiDi))
        (pin (num 12) (name P6) (type BiDi))
        (pin (num 13) (name P7) (type BiDi))
        (pin (num 14) (name ~INT) (type output))
        (pin (num 15) (name SCL) (type input))
        (pin (num 16) (name SDA) (type BiDi))
        (pin (num 17) (name EXP) (type power_in))))
    (libpart (lib kicad-appcent-rescue) (part PESD24VL1BAF-esddiode)
      (fields
        (field (name Reference) D)
        (field (name Value) PESD24VL1BAF-esddiode)
        (field (name Footprint) SOD2512X110N)
        (field (name Datasheet) https://assets.nexperia.com/documents/data-sheet/PESD24VL1BA.pdf)
        (field (name Description) "PESD24VL1BA - Low capacitance bidirectional ESD protection diode in SOD323")
        (field (name Height) 1.1)
        (field (name Manufacturer_Name) Nexperia)
        (field (name Manufacturer_Part_Number) PESD24VL1BAF)
        (field (name "Mouser Part Number") 771-PESD24VL1BAF)
        (field (name "Mouser Price/Stock") https://www.mouser.co.uk/ProductDetail/Nexperia/PESD24VL1BAF/?qs=45Avz0nZxhvsuBpEB89IpQ%3D%3D))
      (pins
        (pin (num 1) (name ~) (type passive))
        (pin (num 2) (name ~) (type passive))))
    (libpart (lib kicad-appcent-rescue) (part SMA-J-P-H-ST-EM1-SMA-J-P-H-ST-EM1)
      (fields
        (field (name Reference) J)
        (field (name Value) SMA-J-P-H-ST-EM1-SMA-J-P-H-ST-EM1)
        (field (name Footprint) SAMTEC_SMA-J-P-H-ST-EM1)
        (field (name MAXIMUM_PACKAGE_HEIGHT) 3.675mm)
        (field (name MANUFACTURER) Samtec)
        (field (name PARTREV) G)
        (field (name STANDARD) "Manufacturer Recommendations"))
      (pins
        (pin (num 1) (name ~) (type passive))
        (pin (num 2_1) (name ~) (type passive))
        (pin (num 2_2) (name ~) (type passive))
        (pin (num 3_1) (name ~) (type passive))
        (pin (num 3_2) (name ~) (type passive))))
    (libpart (lib kicad-appcent-rescue) (part SS24-SS24)
      (fields
        (field (name Reference) D)
        (field (name Value) SS24-SS24)
        (field (name Footprint) DIOM5336X265N)
        (field (name MAXIMUM_PACKAGE_HEIGHT) "2.65 mm")
        (field (name MANUFACTURER) "ON Semiconductor")
        (field (name PARTREV) 1.1.2)
        (field (name STANDARD) "IPC 7351B"))
      (pins
        (pin (num A) (name ~) (type passive))
        (pin (num C) (name ~) (type passive))))
    (libpart (lib kicad-appcent-rescue) (part SS8050-G-SS8050-G)
      (fields
        (field (name Reference) Q)
        (field (name Value) SS8050-G-SS8050-G)
        (field (name Footprint) SOT95P240X115-3N)
        (field (name DESCRIPTION) "Bipolar _BJT_ Transistor NPN 25V 1.5A 100MHz 300mW Surface Mount SOT-23")
        (field (name DIGI-KEY_PART_NUMBER) 641-1790-1-ND)
        (field (name PACKAGE) "TO-236 Comchip")
        (field (name MF) "Comchip Technology")
        (field (name DIGI-KEY_PURCHASE_URL) https://www.digikey.com/product-detail/en/comchip-technology/SS8050-G/641-1790-1-ND/6138954?utm_source=snapeda&utm_medium=aggregator&utm_campaign=symbol)
        (field (name MP) SS8050-G))
      (pins
        (pin (num 1) (name ~) (type BiDi))
        (pin (num 2) (name ~) (type BiDi))
        (pin (num 3) (name ~) (type BiDi))))
    (libpart (lib kicad-appcent-rescue) (part TPS63070RNMT-TPS63070RNMT)
      (fields
        (field (name Reference) U)
        (field (name Value) TPS63070RNMT-TPS63070RNMT)
        (field (name Footprint) VREG_TPS63070RNMR))
      (pins
        (pin (num 1) (name PS/SYNC) (type input))
        (pin (num 2) (name PG) (type output))
        (pin (num 3) (name VAUX) (type output))
        (pin (num 4) (name GND) (type power_in))
        (pin (num 5) (name FB) (type input))
        (pin (num 6) (name FB2) (type output))
        (pin (num 9) (name L2) (type input))
        (pin (num 10) (name PGND) (type power_in))
        (pin (num 11) (name L1) (type input))
        (pin (num 14) (name EN) (type input))
        (pin (num 15) (name VSEL) (type input))
        (pin (num 78) (name VOUT) (type output))
        (pin (num 1213) (name VIN) (type input))))
    (libpart (lib kicad-appcent-rescue) (part XFL4020-102MEC-XFL4020-102MEC)
      (fields
        (field (name Reference) L)
        (field (name Value) XFL4020-102MEC-XFL4020-102MEC)
        (field (name Footprint) IND_XFL4020-102MEC)
        (field (name DESCRIPTION) "Power inductor, shielded, 20% tol, SMT, RoHS, halogen free")
        (field (name MAXIMUM_PACKAGE_HEIGHT) 2.1mm)
        (field (name MANUFACTURER) Coilcraft)
        (field (name PARTREV) 11/02/18)
        (field (name STANDARD) "Manufacturer Recommendations"))
      (pins
        (pin (num 1) (name ~) (type passive))
        (pin (num 2) (name ~) (type passive)))))
  (libraries
    (library (logical Connector)
      (uri "C:\\Program Files\\KiCad\\share\\kicad\\library/Connector.lib"))
    (library (logical Device)
      (uri "C:\\Program Files\\KiCad\\share\\kicad\\library/Device.lib"))
    (library (logical RF_GPS)
      (uri "C:\\Program Files\\KiCad\\share\\kicad\\library/RF_GPS.lib"))
    (library (logical dk_USB-DVI-HDMI-Connectors)
      (uri C:/Users/ahmet/Desktop/Kicad/Library/digikey-kicad-library-master/digikey-symbols/dk_USB-DVI-HDMI-Connectors.lib))
    (library (logical kicad-appcent-rescue)
      (uri "C:\\Users\\ahmet\\Desktop\\Kicad\\kicad appcent/kicad appcent-rescue.lib")))
  (nets
    (net (code 1) (name "Net-(J4-Pad2)")
      (node (ref J4) (pin 2)))
    (net (code 2) (name GND)
      (node (ref C21) (pin 2))
      (node (ref C19) (pin 1))
      (node (ref SW1) (pin 1))
      (node (ref SW2) (pin 1))
      (node (ref D2) (pin 1))
      (node (ref U2) (pin 6))
      (node (ref J2) (pin 2))
      (node (ref J1) (pin 2))
      (node (ref C2) (pin 2))
      (node (ref D3) (pin 2))
      (node (ref U2) (pin 4))
      (node (ref U2) (pin 15))
      (node (ref U2) (pin 10))
      (node (ref L3) (pin 2))
      (node (ref C8) (pin 2))
      (node (ref D5) (pin 2))
      (node (ref D4) (pin 2))
      (node (ref C20) (pin 2))
      (node (ref U3) (pin 12))
      (node (ref U9) (pin 3))
      (node (ref U9) (pin 9))
      (node (ref U8) (pin P$1))
      (node (ref U8) (pin P$10))
      (node (ref U8) (pin P$11))
      (node (ref U8) (pin P$12))
      (node (ref U9) (pin 2))
      (node (ref J4) (pin S1))
      (node (ref U8) (pin P$5))
      (node (ref U8) (pin P$4))
      (node (ref U8) (pin P$3))
      (node (ref U8) (pin P$22))
      (node (ref U8) (pin P$20))
      (node (ref U8) (pin P$2))
      (node (ref U9) (pin 4))
      (node (ref R7) (pin 2))
      (node (ref J4) (pin S2))
      (node (ref U9) (pin 17))
      (node (ref C4) (pin 2))
      (node (ref C15) (pin 1))
      (node (ref U4) (pin 1))
      (node (ref C16) (pin 1))
      (node (ref C14) (pin 1))
      (node (ref C9) (pin 2))
      (node (ref C17) (pin 1))
      (node (ref C18) (pin 2))
      (node (ref U3) (pin 1))
      (node (ref U3) (pin 10))
      (node (ref J5) (pin 2_2))
      (node (ref U4) (pin 7))
      (node (ref U5) (pin 1))
      (node (ref U5) (pin 15))
      (node (ref U1) (pin 29))
      (node (ref U1) (pin 3))
      (node (ref J4) (pin 10))
      (node (ref J4) (pin 17))
      (node (ref C13) (pin 1))
      (node (ref J4) (pin 23))
      (node (ref C12) (pin 1))
      (node (ref U5) (pin 39))
      (node (ref U5) (pin 38))
      (node (ref C11) (pin 2))
      (node (ref J3) (pin SH))
      (node (ref U6) (pin 1))
      (node (ref R11) (pin 2))
      (node (ref U7) (pin 1))
      (node (ref C7) (pin 2))
      (node (ref C6) (pin 2))
      (node (ref C5) (pin 2))
      (node (ref J5) (pin 2_1))
      (node (ref C3) (pin 2))
      (node (ref C1) (pin 2))
      (node (ref J5) (pin 3_2))
      (node (ref J5) (pin 3_1))
      (node (ref R2) (pin 2))
      (node (ref J3) (pin 5)))
    (net (code 3) (name "Net-(U8-PadP$6)")
      (node (ref U8) (pin P$6)))
    (net (code 4) (name "Net-(U8-PadP$7)")
      (node (ref U8) (pin P$7)))
    (net (code 5) (name "Net-(U8-PadP$8)")
      (node (ref U8) (pin P$8)))
    (net (code 6) (name "Net-(U9-Pad14)")
      (node (ref U9) (pin 14)))
    (net (code 7) (name "Net-(J4-Pad1)")
      (node (ref J4) (pin 1)))
    (net (code 8) (name "Net-(J3-Pad4)")
      (node (ref J3) (pin 4)))
    (net (code 9) (name "Net-(L1-Pad2)")
      (node (ref U2) (pin 11))
      (node (ref L1) (pin 2)))
    (net (code 10) (name "Net-(L1-Pad1)")
      (node (ref U2) (pin 9))
      (node (ref L1) (pin 1)))
    (net (code 11) (name "Net-(R9-Pad1)")
      (node (ref U2) (pin 2))
      (node (ref R9) (pin 1)))
    (net (code 12) (name IO2)
      (node (ref U5) (pin 24))
      (node (ref R1) (pin 2))
      (node (ref R2) (pin 1)))
    (net (code 13) (name "Net-(R4-Pad2)")
      (node (ref U2) (pin 1))
      (node (ref R4) (pin 2))
      (node (ref U2) (pin 14)))
    (net (code 14) (name 2.8V)
      (node (ref J4) (pin 21))
      (node (ref C14) (pin 2))
      (node (ref U6) (pin 2))
      (node (ref C16) (pin 2)))
    (net (code 15) (name "Net-(R10-Pad2)")
      (node (ref U2) (pin 5))
      (node (ref R11) (pin 1))
      (node (ref R10) (pin 2)))
    (net (code 16) (name VIN)
      (node (ref U2) (pin 1213))
      (node (ref D1) (pin C))
      (node (ref C2) (pin 1))
      (node (ref J2) (pin 1))
      (node (ref J1) (pin 1))
      (node (ref R1) (pin 1))
      (node (ref R4) (pin 1))
      (node (ref C1) (pin 1)))
    (net (code 17) (name VBUS)
      (node (ref J3) (pin 1))
      (node (ref D1) (pin A))
      (node (ref R8) (pin 2))
      (node (ref D3) (pin 1)))
    (net (code 18) (name RESET)
      (node (ref C8) (pin 1))
      (node (ref J4) (pin 19))
      (node (ref R17) (pin 1)))
    (net (code 19) (name "Net-(C19-Pad2)")
      (node (ref U2) (pin 3))
      (node (ref C19) (pin 2)))
    (net (code 20) (name "Net-(D2-Pad2)")
      (node (ref R14) (pin 1))
      (node (ref D2) (pin 2)))
    (net (code 21) (name +3V3)
      (node (ref U8) (pin P$9))
      (node (ref U9) (pin 1))
      (node (ref Q4) (pin 2))
      (node (ref U4) (pin 6))
      (node (ref U4) (pin 5))
      (node (ref U4) (pin 2))
      (node (ref U4) (pin 8))
      (node (ref U1) (pin 6))
      (node (ref U5) (pin 2))
      (node (ref U1) (pin 7))
      (node (ref Q3) (pin 2))
      (node (ref R12) (pin 2))
      (node (ref R16) (pin 2))
      (node (ref R17) (pin 2))
      (node (ref U2) (pin 78))
      (node (ref R15) (pin 1))
      (node (ref R13) (pin 1))
      (node (ref C20) (pin 1))
      (node (ref C5) (pin 1))
      (node (ref C3) (pin 1))
      (node (ref C4) (pin 1))
      (node (ref R9) (pin 2))
      (node (ref R10) (pin 1))
      (node (ref R3) (pin 1))
      (node (ref C7) (pin 1))
      (node (ref C6) (pin 1)))
    (net (code 22) (name CAM_PWR)
      (node (ref Q4) (pin 1))
      (node (ref R15) (pin 2))
      (node (ref U9) (pin 7)))
    (net (code 23) (name CAM3.3)
      (node (ref J4) (pin 14))
      (node (ref C13) (pin 2))
      (node (ref C18) (pin 1))
      (node (ref Q4) (pin 3))
      (node (ref U7) (pin 3))
      (node (ref U6) (pin 3)))
    (net (code 24) (name 1.2V)
      (node (ref C17) (pin 2))
      (node (ref U7) (pin 2))
      (node (ref J4) (pin 15))
      (node (ref C15) (pin 2)))
    (net (code 25) (name GPS_PWR)
      (node (ref Q3) (pin 1))
      (node (ref R13) (pin 2))
      (node (ref U9) (pin 5)))
    (net (code 26) (name PCLK)
      (node (ref C12) (pin 2))
      (node (ref J4) (pin 8))
      (node (ref U5) (pin 36)))
    (net (code 27) (name LED)
      (node (ref R14) (pin 2))
      (node (ref U9) (pin 6)))
    (net (code 28) (name "Net-(Q1-Pad1)")
      (node (ref Q1) (pin 1))
      (node (ref R5) (pin 2)))
    (net (code 29) (name "Net-(Q2-Pad1)")
      (node (ref Q2) (pin 1))
      (node (ref R6) (pin 2)))
    (net (code 30) (name SCL)
      (node (ref U3) (pin 17))
      (node (ref U9) (pin 15))
      (node (ref J4) (pin 20))
      (node (ref U5) (pin 12))
      (node (ref R12) (pin 1))
      (node (ref U4) (pin 4)))
    (net (code 31) (name SDA)
      (node (ref U9) (pin 16))
      (node (ref U3) (pin 16))
      (node (ref U4) (pin 3))
      (node (ref J4) (pin 22))
      (node (ref R16) (pin 1))
      (node (ref U5) (pin 11)))
    (net (code 32) (name "Net-(C10-Pad2)")
      (node (ref C10) (pin 2))
      (node (ref U3) (pin 11)))
    (net (code 33) (name "Net-(R3-Pad2)")
      (node (ref U1) (pin 9))
      (node (ref R3) (pin 2)))
    (net (code 34) (name P4)
      (node (ref U9) (pin 10)))
    (net (code 35) (name P5)
      (node (ref U9) (pin 11)))
    (net (code 36) (name P6)
      (node (ref U9) (pin 12)))
    (net (code 37) (name P7)
      (node (ref U9) (pin 13)))
    (net (code 38) (name P3)
      (node (ref U9) (pin 8)))
    (net (code 39) (name "Net-(J5-Pad1)")
      (node (ref U8) (pin ANT))
      (node (ref J5) (pin 1)))
    (net (code 40) (name "Net-(R7-Pad1)")
      (node (ref R7) (pin 1))
      (node (ref R8) (pin 1))
      (node (ref U1) (pin 8)))
    (net (code 41) (name CLK)
      (node (ref U5) (pin 13))
      (node (ref U8) (pin P$18)))
    (net (code 42) (name MISO)
      (node (ref U8) (pin P$16))
      (node (ref U5) (pin 14)))
    (net (code 43) (name MOSI)
      (node (ref U8) (pin P$17))
      (node (ref U5) (pin 16)))
    (net (code 44) (name "Net-(U5-Pad17)")
      (node (ref U5) (pin 17)))
    (net (code 45) (name "Net-(U5-Pad18)")
      (node (ref U5) (pin 18)))
    (net (code 46) (name "Net-(U5-Pad19)")
      (node (ref U5) (pin 19)))
    (net (code 47) (name "Net-(U5-Pad20)")
      (node (ref U5) (pin 20)))
    (net (code 48) (name "Net-(U5-Pad21)")
      (node (ref U5) (pin 21)))
    (net (code 49) (name "Net-(U5-Pad22)")
      (node (ref U5) (pin 22)))
    (net (code 50) (name CS)
      (node (ref U8) (pin P$19))
      (node (ref U5) (pin 23)))
    (net (code 51) (name "Net-(U1-Pad21)")
      (node (ref U1) (pin 21)))
    (net (code 52) (name "Net-(U1-Pad10)")
      (node (ref U1) (pin 10)))
    (net (code 53) (name "Net-(U1-Pad11)")
      (node (ref U1) (pin 11)))
    (net (code 54) (name "Net-(U1-Pad12)")
      (node (ref U1) (pin 12)))
    (net (code 55) (name "Net-(U1-Pad13)")
      (node (ref U1) (pin 13)))
    (net (code 56) (name "Net-(U1-Pad14)")
      (node (ref U1) (pin 14)))
    (net (code 57) (name "Net-(U1-Pad15)")
      (node (ref U1) (pin 15)))
    (net (code 58) (name "Net-(U1-Pad16)")
      (node (ref U1) (pin 16)))
    (net (code 59) (name "Net-(U1-Pad17)")
      (node (ref U1) (pin 17)))
    (net (code 60) (name "Net-(U1-Pad18)")
      (node (ref U1) (pin 18)))
    (net (code 61) (name "Net-(U1-Pad19)")
      (node (ref U1) (pin 19)))
    (net (code 62) (name "Net-(U1-Pad2)")
      (node (ref U1) (pin 2)))
    (net (code 63) (name "Net-(U1-Pad20)")
      (node (ref U1) (pin 20)))
    (net (code 64) (name "Net-(U1-Pad22)")
      (node (ref U1) (pin 22)))
    (net (code 65) (name "Net-(U1-Pad23)")
      (node (ref U1) (pin 23)))
    (net (code 66) (name RTS)
      (node (ref Q1) (pin 2))
      (node (ref U1) (pin 24))
      (node (ref R6) (pin 1)))
    (net (code 67) (name "Net-(U1-Pad27)")
      (node (ref U1) (pin 27)))
    (net (code 68) (name DTR)
      (node (ref R5) (pin 1))
      (node (ref U1) (pin 28))
      (node (ref Q2) (pin 2)))
    (net (code 69) (name USB_DP)
      (node (ref J3) (pin 3))
      (node (ref D5) (pin 1))
      (node (ref U1) (pin 4)))
    (net (code 70) (name USB_DN)
      (node (ref D4) (pin 1))
      (node (ref U1) (pin 5))
      (node (ref J3) (pin 2)))
    (net (code 71) (name Y8)
      (node (ref J4) (pin 11))
      (node (ref U5) (pin 6)))
    (net (code 72) (name IO0)
      (node (ref U5) (pin 25))
      (node (ref Q2) (pin 3))
      (node (ref C9) (pin 1))
      (node (ref SW1) (pin 2))
      (node (ref J4) (pin 12)))
    (net (code 73) (name Y9)
      (node (ref U5) (pin 7))
      (node (ref J4) (pin 13)))
    (net (code 74) (name HREF)
      (node (ref U5) (pin 37))
      (node (ref J4) (pin 16)))
    (net (code 75) (name VSYNC)
      (node (ref U5) (pin 10))
      (node (ref J4) (pin 18)))
    (net (code 76) (name "Net-(J4-Pad24)")
      (node (ref J4) (pin 24)))
    (net (code 77) (name Y4)
      (node (ref J4) (pin 3))
      (node (ref U5) (pin 31)))
    (net (code 78) (name Y3)
      (node (ref U5) (pin 30))
      (node (ref J4) (pin 4)))
    (net (code 79) (name Y5)
      (node (ref U5) (pin 33))
      (node (ref J4) (pin 5)))
    (net (code 80) (name Y2)
      (node (ref J4) (pin 6))
      (node (ref U5) (pin 29)))
    (net (code 81) (name Y6)
      (node (ref J4) (pin 7))
      (node (ref U5) (pin 4)))
    (net (code 82) (name Y7)
      (node (ref U5) (pin 5))
      (node (ref J4) (pin 9)))
    (net (code 83) (name IO4)
      (node (ref U5) (pin 26))
      (node (ref U8) (pin P$13)))
    (net (code 84) (name EN)
      (node (ref Q1) (pin 3))
      (node (ref U5) (pin 3))
      (node (ref C11) (pin 1))
      (node (ref SW2) (pin 2)))
    (net (code 85) (name RXD0)
      (node (ref U1) (pin 26))
      (node (ref U5) (pin 34)))
    (net (code 86) (name TXD0)
      (node (ref U5) (pin 35))
      (node (ref U1) (pin 25)))
    (net (code 87) (name IO32)
      (node (ref U8) (pin P$15))
      (node (ref U5) (pin 8)))
    (net (code 88) (name IO33)
      (node (ref U5) (pin 9))
      (node (ref U8) (pin P$14)))
    (net (code 89) (name "Net-(U3-Pad14)")
      (node (ref U3) (pin 14)))
    (net (code 90) (name "Net-(U3-Pad13)")
      (node (ref U3) (pin 13)))
    (net (code 91) (name "Net-(U3-Pad15)")
      (node (ref U3) (pin 15)))
    (net (code 92) (name "Net-(U3-Pad18)")
      (node (ref U3) (pin 18)))
    (net (code 93) (name "Net-(U3-Pad2)")
      (node (ref U3) (pin 2)))
    (net (code 94) (name "Net-(U3-Pad3)")
      (node (ref U3) (pin 3)))
    (net (code 95) (name "Net-(U3-Pad4)")
      (node (ref U3) (pin 4)))
    (net (code 96) (name "Net-(U3-Pad5)")
      (node (ref U3) (pin 5)))
    (net (code 97) (name "Net-(C21-Pad1)")
      (node (ref Q3) (pin 3))
      (node (ref U3) (pin 6))
      (node (ref C21) (pin 1))
      (node (ref U3) (pin 9))
      (node (ref U3) (pin 7))
      (node (ref U3) (pin 8)))
    (net (code 98) (name "Net-(AE1-Pad1)")
      (node (ref AE1) (pin 1))
      (node (ref C10) (pin 1))
      (node (ref L3) (pin 1)))
    (net (code 99) (name "Net-(U1-Pad1)")
      (node (ref U1) (pin 1)))))